%YAML 1.1
%TAG !u! tag:unity3d.com,2011:
--- !u!29 &1
SceneSettings:
  m_ObjectHideFlags: 0
  m_PVSData: 
  m_PVSObjectsArray: []
  m_PVSPortalsArray: []
  m_OcclusionBakeSettings:
    smallestOccluder: 5
    smallestHole: 0.25
    backfaceThreshold: 100
--- !u!104 &2
RenderSettings:
  m_ObjectHideFlags: 0
  serializedVersion: 6
  m_Fog: 0
  m_FogColor: {r: 0.5, g: 0.5, b: 0.5, a: 1}
  m_FogMode: 3
  m_FogDensity: 0.01
  m_LinearFogStart: 0
  m_LinearFogEnd: 300
  m_AmbientSkyColor: {r: 0.212, g: 0.227, b: 0.259, a: 1}
  m_AmbientEquatorColor: {r: 0.114, g: 0.125, b: 0.133, a: 1}
  m_AmbientGroundColor: {r: 0.047, g: 0.043, b: 0.035, a: 1}
  m_AmbientIntensity: 1
  m_AmbientMode: 0
  m_SkyboxMaterial: {fileID: 0}
  m_HaloStrength: 0.5
  m_FlareStrength: 1
  m_FlareFadeSpeed: 3
  m_HaloTexture: {fileID: 0}
  m_SpotCookie: {fileID: 10001, guid: 0000000000000000e000000000000000, type: 0}
  m_DefaultReflectionMode: 0
  m_DefaultReflectionResolution: 128
  m_ReflectionBounces: 1
  m_ReflectionIntensity: 1
  m_CustomReflection: {fileID: 0}
  m_Sun: {fileID: 0}
--- !u!157 &4
LightmapSettings:
  m_ObjectHideFlags: 0
  serializedVersion: 6
  m_GIWorkflowMode: 0
  m_LightmapsMode: 1
  m_GISettings:
    serializedVersion: 2
    m_BounceScale: 1
    m_IndirectOutputScale: 1
    m_AlbedoBoost: 1
    m_TemporalCoherenceThreshold: 1
    m_EnvironmentLightingMode: 0
    m_EnableBakedLightmaps: 1
    m_EnableRealtimeLightmaps: 1
  m_LightmapEditorSettings:
    serializedVersion: 3
    m_Resolution: 2
    m_BakeResolution: 40
    m_TextureWidth: 1024
    m_TextureHeight: 1024
    m_AOMaxDistance: 1
    m_Padding: 2
    m_CompAOExponent: 0
    m_LightmapParameters: {fileID: 0}
    m_TextureCompression: 1
    m_FinalGather: 0
    m_FinalGatherRayCount: 1024
    m_ReflectionCompression: 2
  m_LightingDataAsset: {fileID: 0}
  m_RuntimeCPUUsage: 25
--- !u!196 &5
NavMeshSettings:
  serializedVersion: 2
  m_ObjectHideFlags: 0
  m_BuildSettings:
    serializedVersion: 2
    agentRadius: 0.5
    agentHeight: 2
    agentSlope: 45
    agentClimb: 0.4
    ledgeDropHeight: 0
    maxJumpAcrossDistance: 0
    accuratePlacement: 0
    minRegionArea: 2
    cellSize: 0.16666667
    manualCellSize: 0
  m_NavMeshData: {fileID: 0}
--- !u!1 &125877302
GameObject:
  m_ObjectHideFlags: 0
  m_PrefabParentObject: {fileID: 188694, guid: f2f3120c1bdbe1048b22872d840de803, type: 2}
  m_PrefabInternal: {fileID: 1571043981}
  serializedVersion: 4
  m_Component:
  - 4: {fileID: 125877305}
  - 33: {fileID: 125877304}
  - 23: {fileID: 125877303}
  m_Layer: 0
  m_Name: Gas_Planet_A
  m_TagString: Untagged
  m_Icon: {fileID: 0}
  m_NavMeshLayer: 0
  m_StaticEditorFlags: 0
  m_IsActive: 1
--- !u!23 &125877303
MeshRenderer:
  m_ObjectHideFlags: 0
  m_PrefabParentObject: {fileID: 2302494, guid: f2f3120c1bdbe1048b22872d840de803,
    type: 2}
  m_PrefabInternal: {fileID: 1571043981}
  m_GameObject: {fileID: 125877302}
  m_Enabled: 1
  m_CastShadows: 1
  m_ReceiveShadows: 1
  m_Materials:
  - {fileID: 2100000, guid: bb757e178e37edd4abcd5b4c01109162, type: 2}
  m_SubsetIndices: 
  m_StaticBatchRoot: {fileID: 0}
  m_UseLightProbes: 1
  m_ReflectionProbeUsage: 1
  m_ProbeAnchor: {fileID: 0}
  m_ScaleInLightmap: 1
  m_PreserveUVs: 0
  m_IgnoreNormalsForChartDetection: 0
  m_ImportantGI: 0
  m_MinimumChartSize: 4
  m_AutoUVMaxDistance: 0.5
  m_AutoUVMaxAngle: 89
  m_LightmapParameters: {fileID: 0}
  m_SortingLayerID: 0
  m_SortingOrder: 0
--- !u!33 &125877304
MeshFilter:
  m_ObjectHideFlags: 0
  m_PrefabParentObject: {fileID: 3399076, guid: f2f3120c1bdbe1048b22872d840de803,
    type: 2}
  m_PrefabInternal: {fileID: 1571043981}
  m_GameObject: {fileID: 125877302}
  m_Mesh: {fileID: 4300024, guid: 239b7f955033e6a43a5bb6e9999d3f34, type: 3}
--- !u!4 &125877305
Transform:
  m_ObjectHideFlags: 0
  m_PrefabParentObject: {fileID: 489550, guid: f2f3120c1bdbe1048b22872d840de803, type: 2}
  m_PrefabInternal: {fileID: 1571043981}
  m_GameObject: {fileID: 125877302}
  m_LocalRotation: {x: -0.09660101, y: -0.22766149, z: 0.04209964, w: 0.9680218}
  m_LocalPosition: {x: -19.1, y: -7, z: 27.8}
  m_LocalScale: {x: 0.62888145, y: 0.6288813, z: 0.6288813}
  m_Children: []
  m_Father: {fileID: 0}
  m_RootOrder: 7
--- !u!1 &139216684
GameObject:
  m_ObjectHideFlags: 0
  m_PrefabParentObject: {fileID: 109258, guid: c493d3d03cbce404cb4426d18901b4a2, type: 2}
  m_PrefabInternal: {fileID: 1266782654}
  serializedVersion: 4
  m_Component:
  - 4: {fileID: 139216687}
  - 33: {fileID: 139216686}
  - 23: {fileID: 139216685}
  m_Layer: 0
  m_Name: Nebula_Medium 2
  m_TagString: Untagged
  m_Icon: {fileID: 0}
  m_NavMeshLayer: 0
  m_StaticEditorFlags: 0
  m_IsActive: 1
--- !u!23 &139216685
MeshRenderer:
  m_ObjectHideFlags: 0
  m_PrefabParentObject: {fileID: 2395338, guid: c493d3d03cbce404cb4426d18901b4a2,
    type: 2}
  m_PrefabInternal: {fileID: 1266782654}
  m_GameObject: {fileID: 139216684}
  m_Enabled: 1
  m_CastShadows: 1
  m_ReceiveShadows: 1
  m_Materials:
  - {fileID: 2100000, guid: ef53862a251c3ad4d95b2b376608ee3f, type: 2}
  m_SubsetIndices: 
  m_StaticBatchRoot: {fileID: 0}
  m_UseLightProbes: 1
  m_ReflectionProbeUsage: 1
  m_ProbeAnchor: {fileID: 0}
  m_ScaleInLightmap: 1
  m_PreserveUVs: 0
  m_IgnoreNormalsForChartDetection: 0
  m_ImportantGI: 0
  m_MinimumChartSize: 4
  m_AutoUVMaxDistance: 0.5
  m_AutoUVMaxAngle: 89
  m_LightmapParameters: {fileID: 0}
  m_SortingLayerID: 0
  m_SortingOrder: 0
--- !u!33 &139216686
MeshFilter:
  m_ObjectHideFlags: 0
  m_PrefabParentObject: {fileID: 3368128, guid: c493d3d03cbce404cb4426d18901b4a2,
    type: 2}
  m_PrefabInternal: {fileID: 1266782654}
  m_GameObject: {fileID: 139216684}
  m_Mesh: {fileID: 4300002, guid: 0e93fe3bf6b9ebd48857f39dfa5b9def, type: 3}
--- !u!4 &139216687
Transform:
  m_ObjectHideFlags: 0
  m_PrefabParentObject: {fileID: 435914, guid: c493d3d03cbce404cb4426d18901b4a2, type: 2}
  m_PrefabInternal: {fileID: 1266782654}
  m_GameObject: {fileID: 139216684}
  m_LocalRotation: {x: 0.78841597, y: 0.073702835, z: 0.081781045, w: 0.6052108}
  m_LocalPosition: {x: 0, y: 0, z: 0}
  m_LocalScale: {x: 0.98, y: 0.98, z: 0.98}
  m_Children: []
  m_Father: {fileID: 0}
  m_RootOrder: 3
--- !u!1 &179256131
GameObject:
  m_ObjectHideFlags: 0
  m_PrefabParentObject: {fileID: 159522, guid: 0e66f862ac3e68c429da9f9aac1bb079, type: 2}
  m_PrefabInternal: {fileID: 914535768}
  serializedVersion: 4
  m_Component:
  - 4: {fileID: 179256134}
  - 198: {fileID: 179256133}
  - 199: {fileID: 179256132}
  m_Layer: 0
  m_Name: Asteroids_Dense_B
  m_TagString: Untagged
  m_Icon: {fileID: 0}
  m_NavMeshLayer: 0
  m_StaticEditorFlags: 0
  m_IsActive: 1
--- !u!199 &179256132
ParticleSystemRenderer:
  m_ObjectHideFlags: 0
  m_PrefabParentObject: {fileID: 19990644, guid: 0e66f862ac3e68c429da9f9aac1bb079,
    type: 2}
  m_PrefabInternal: {fileID: 914535768}
  m_GameObject: {fileID: 179256131}
  m_Enabled: 1
  m_CastShadows: 1
  m_ReceiveShadows: 1
  m_Materials:
  - {fileID: 2100000, guid: faf502faf7e5c414d89caa4b6b589720, type: 2}
  m_SubsetIndices: 
  m_StaticBatchRoot: {fileID: 0}
  m_UseLightProbes: 1
  m_ReflectionProbeUsage: 1
  m_ProbeAnchor: {fileID: 0}
  m_ScaleInLightmap: 1
  m_PreserveUVs: 0
  m_IgnoreNormalsForChartDetection: 0
  m_ImportantGI: 0
  m_MinimumChartSize: 4
  m_AutoUVMaxDistance: 0.5
  m_AutoUVMaxAngle: 89
  m_LightmapParameters: {fileID: 0}
  m_SortingLayerID: 0
  m_SortingOrder: 0
  m_RenderMode: 4
  m_SortMode: 0
  m_MinParticleSize: 0
  m_MaxParticleSize: 0.5
  m_CameraVelocityScale: 0
  m_VelocityScale: 0
  m_LengthScale: 2
  m_SortingFudge: 0
  m_NormalDirection: 1
  m_RenderAlignment: 0
  m_Pivot: {x: 0, y: 0, z: 0}
  m_Mesh: {fileID: 4300000, guid: 38c445290885e384197c7c05e3d49f5f, type: 3}
  m_Mesh1: {fileID: 4300002, guid: 38c445290885e384197c7c05e3d49f5f, type: 3}
  m_Mesh2: {fileID: 4300004, guid: 38c445290885e384197c7c05e3d49f5f, type: 3}
  m_Mesh3: {fileID: 4300006, guid: 38c445290885e384197c7c05e3d49f5f, type: 3}
--- !u!198 &179256133
ParticleSystem:
  m_ObjectHideFlags: 0
  m_PrefabParentObject: {fileID: 19878980, guid: 0e66f862ac3e68c429da9f9aac1bb079,
    type: 2}
  m_PrefabInternal: {fileID: 914535768}
  m_GameObject: {fileID: 179256131}
  serializedVersion: 2
  lengthInSec: 5
  startDelay:
    scalar: 0
    maxCurve:
      serializedVersion: 2
      m_Curve:
      - time: 0
        value: 1
        inSlope: 0
        outSlope: 0
        tangentMode: 0
      - time: 1
        value: 1
        inSlope: 0
        outSlope: 0
        tangentMode: 0
      m_PreInfinity: 2
      m_PostInfinity: 2
      m_RotationOrder: 4
    minCurve:
      serializedVersion: 2
      m_Curve:
      - time: 0
        value: 0
        inSlope: 0
        outSlope: 0
        tangentMode: 0
      - time: 1
        value: 0
        inSlope: 0
        outSlope: 0
        tangentMode: 0
      m_PreInfinity: 2
      m_PostInfinity: 2
      m_RotationOrder: 4
    minMaxState: 0
  speed: 1
  randomSeed: 0
  looping: 1
  prewarm: 0
  playOnAwake: 1
  moveWithTransform: 1
  scalingMode: 2
  InitialModule:
    serializedVersion: 2
    enabled: 1
    startLifetime:
      scalar: 100000
      maxCurve:
        serializedVersion: 2
        m_Curve:
        - time: 0
          value: 1
          inSlope: 0
          outSlope: 0
          tangentMode: 0
        m_PreInfinity: 2
        m_PostInfinity: 2
        m_RotationOrder: 4
      minCurve:
        serializedVersion: 2
        m_Curve:
        - time: 0
          value: 0
          inSlope: 0
          outSlope: 0
          tangentMode: 0
        - time: 1
          value: 0
          inSlope: 0
          outSlope: 0
          tangentMode: 0
        m_PreInfinity: 2
        m_PostInfinity: 2
        m_RotationOrder: 4
      minMaxState: 0
    startSpeed:
      scalar: 0.05
      maxCurve:
        serializedVersion: 2
        m_Curve:
        - time: 0
          value: 1
          inSlope: 0
          outSlope: 0
          tangentMode: 0
        - time: 1
          value: 1
          inSlope: 0
          outSlope: 0
          tangentMode: 0
        m_PreInfinity: 2
        m_PostInfinity: 2
        m_RotationOrder: 4
      minCurve:
        serializedVersion: 2
        m_Curve:
        - time: 0
          value: 0
          inSlope: 0
          outSlope: 0
          tangentMode: 0
        - time: 1
          value: 0
          inSlope: 0
          outSlope: 0
          tangentMode: 0
        m_PreInfinity: 2
        m_PostInfinity: 2
        m_RotationOrder: 4
      minMaxState: 0
    startColor:
      maxGradient:
        key0:
          serializedVersion: 2
          rgba: 4294967295
        key1:
          serializedVersion: 2
          rgba: 4294967295
        key2:
          serializedVersion: 2
          rgba: 0
        key3:
          serializedVersion: 2
          rgba: 0
        key4:
          serializedVersion: 2
          rgba: 0
        key5:
          serializedVersion: 2
          rgba: 0
        key6:
          serializedVersion: 2
          rgba: 0
        key7:
          serializedVersion: 2
          rgba: 0
        ctime0: 0
        ctime1: 65535
        ctime2: 0
        ctime3: 0
        ctime4: 0
        ctime5: 0
        ctime6: 0
        ctime7: 0
        atime0: 0
        atime1: 65535
        atime2: 0
        atime3: 0
        atime4: 0
        atime5: 0
        atime6: 0
        atime7: 0
        m_NumColorKeys: 2
        m_NumAlphaKeys: 2
      minGradient:
        key0:
          serializedVersion: 2
          rgba: 4294967295
        key1:
          serializedVersion: 2
          rgba: 4294967295
        key2:
          serializedVersion: 2
          rgba: 0
        key3:
          serializedVersion: 2
          rgba: 0
        key4:
          serializedVersion: 2
          rgba: 0
        key5:
          serializedVersion: 2
          rgba: 0
        key6:
          serializedVersion: 2
          rgba: 0
        key7:
          serializedVersion: 2
          rgba: 0
        ctime0: 0
        ctime1: 65535
        ctime2: 0
        ctime3: 0
        ctime4: 0
        ctime5: 0
        ctime6: 0
        ctime7: 0
        atime0: 0
        atime1: 65535
        atime2: 0
        atime3: 0
        atime4: 0
        atime5: 0
        atime6: 0
        atime7: 0
        m_NumColorKeys: 2
        m_NumAlphaKeys: 2
      minColor:
        serializedVersion: 2
        rgba: 4294967295
      maxColor:
        serializedVersion: 2
        rgba: 4294967295
      minMaxState: 0
    startSize:
      scalar: 20
      maxCurve:
        serializedVersion: 2
        m_Curve:
        - time: 0
          value: 1
          inSlope: 0
          outSlope: 0
          tangentMode: 0
        - time: 1
          value: 1
          inSlope: 0
          outSlope: 0
          tangentMode: 0
        m_PreInfinity: 2
        m_PostInfinity: 2
        m_RotationOrder: 4
      minCurve:
        serializedVersion: 2
        m_Curve:
        - time: 0
          value: 0
          inSlope: 0
          outSlope: 0
          tangentMode: 0
        - time: 1
          value: 0
          inSlope: 0
          outSlope: 0
          tangentMode: 0
        m_PreInfinity: 2
        m_PostInfinity: 2
        m_RotationOrder: 4
      minMaxState: 0
    startRotationX:
      scalar: 1
      maxCurve:
        serializedVersion: 2
        m_Curve:
        - time: 0
          value: 1
          inSlope: 0
          outSlope: 0
          tangentMode: 0
        - time: 1
          value: 1
          inSlope: 0
          outSlope: 0
          tangentMode: 0
        m_PreInfinity: 2
        m_PostInfinity: 2
        m_RotationOrder: 4
      minCurve:
        serializedVersion: 2
        m_Curve:
        - time: 0
          value: 0
          inSlope: 0
          outSlope: 0
          tangentMode: 0
        - time: 1
          value: 0
          inSlope: 0
          outSlope: 0
          tangentMode: 0
        m_PreInfinity: 2
        m_PostInfinity: 2
        m_RotationOrder: 4
      minMaxState: 0
    startRotationY:
      scalar: 1
      maxCurve:
        serializedVersion: 2
        m_Curve:
        - time: 0
          value: 1
          inSlope: 0
          outSlope: 0
          tangentMode: 0
        - time: 1
          value: 1
          inSlope: 0
          outSlope: 0
          tangentMode: 0
        m_PreInfinity: 2
        m_PostInfinity: 2
        m_RotationOrder: 4
      minCurve:
        serializedVersion: 2
        m_Curve:
        - time: 0
          value: 0
          inSlope: 0
          outSlope: 0
          tangentMode: 0
        - time: 1
          value: 0
          inSlope: 0
          outSlope: 0
          tangentMode: 0
        m_PreInfinity: 2
        m_PostInfinity: 2
        m_RotationOrder: 4
      minMaxState: 0
    startRotation:
      scalar: 0
      maxCurve:
        serializedVersion: 2
        m_Curve:
        - time: 0
          value: 1
          inSlope: 0
          outSlope: 0
          tangentMode: 0
        - time: 1
          value: 1
          inSlope: 0
          outSlope: 0
          tangentMode: 0
        m_PreInfinity: 2
        m_PostInfinity: 2
        m_RotationOrder: 4
      minCurve:
        serializedVersion: 2
        m_Curve:
        - time: 0
          value: 0
          inSlope: 0
          outSlope: 0
          tangentMode: 0
        - time: 1
          value: 0
          inSlope: 0
          outSlope: 0
          tangentMode: 0
        m_PreInfinity: 2
        m_PostInfinity: 2
        m_RotationOrder: 4
      minMaxState: 0
    randomizeRotationDirection: 0
    gravityModifier: 0
    maxNumParticles: 250
    rotation3D: 0
  ShapeModule:
    serializedVersion: 2
    enabled: 1
    type: 0
    radius: 5
    angle: 25
    length: 5
    boxX: 1
    boxY: 1
    boxZ: 1
    arc: 360
    placementMode: 0
    m_Mesh: {fileID: 0}
    m_MeshRenderer: {fileID: 0}
    m_SkinnedMeshRenderer: {fileID: 0}
    m_MeshMaterialIndex: 0
    m_MeshNormalOffset: 0
    m_UseMeshMaterialIndex: 0
    m_UseMeshColors: 1
    randomDirection: 1
  EmissionModule:
    enabled: 1
    serializedVersion: 2
    m_Type: 0
    rate:
      scalar: 1
      maxCurve:
        serializedVersion: 2
        m_Curve:
        - time: 0
          value: 1
          inSlope: 0
          outSlope: 0
          tangentMode: 0
        m_PreInfinity: 2
        m_PostInfinity: 2
        m_RotationOrder: 4
      minCurve:
        serializedVersion: 2
        m_Curve:
        - time: 0
          value: 0
          inSlope: 0
          outSlope: 0
          tangentMode: 0
        - time: 1
          value: 0
          inSlope: 0
          outSlope: 0
          tangentMode: 0
        m_PreInfinity: 2
        m_PostInfinity: 2
        m_RotationOrder: 4
      minMaxState: 0
    cnt0: 250
    cnt1: 30
    cnt2: 30
    cnt3: 30
    cntmax0: 250
    cntmax1: 30
    cntmax2: 30
    cntmax3: 30
    time0: 0.01
    time1: 0
    time2: 0
    time3: 0
    m_BurstCount: 1
  SizeModule:
    enabled: 1
    curve:
      scalar: 0.5
      maxCurve:
        serializedVersion: 2
        m_Curve:
        - time: 0
          value: 1
          inSlope: 0
          outSlope: 0
          tangentMode: 0
        m_PreInfinity: 2
        m_PostInfinity: 2
        m_RotationOrder: 4
      minCurve:
        serializedVersion: 2
        m_Curve:
        - time: 0
          value: 0.6
          inSlope: 0
          outSlope: 0
          tangentMode: 0
        m_PreInfinity: 2
        m_PostInfinity: 2
        m_RotationOrder: 4
      minMaxState: 3
  RotationModule:
    enabled: 1
    x:
      scalar: 1
      maxCurve:
        serializedVersion: 2
        m_Curve:
        - time: 0
          value: 1
          inSlope: 0
          outSlope: 0
          tangentMode: 0
        - time: 1
          value: 1
          inSlope: 0
          outSlope: 0
          tangentMode: 0
        m_PreInfinity: 2
        m_PostInfinity: 2
        m_RotationOrder: 4
      minCurve:
        serializedVersion: 2
        m_Curve:
        - time: 0
          value: 0
          inSlope: 0
          outSlope: 0
          tangentMode: 0
        - time: 1
          value: 0
          inSlope: 0
          outSlope: 0
          tangentMode: 0
        m_PreInfinity: 2
        m_PostInfinity: 2
        m_RotationOrder: 4
      minMaxState: 0
    y:
      scalar: 1
      maxCurve:
        serializedVersion: 2
        m_Curve:
        - time: 0
          value: 1
          inSlope: 0
          outSlope: 0
          tangentMode: 0
        - time: 1
          value: 1
          inSlope: 0
          outSlope: 0
          tangentMode: 0
        m_PreInfinity: 2
        m_PostInfinity: 2
        m_RotationOrder: 4
      minCurve:
        serializedVersion: 2
        m_Curve:
        - time: 0
          value: 0
          inSlope: 0
          outSlope: 0
          tangentMode: 0
        - time: 1
          value: 0
          inSlope: 0
          outSlope: 0
          tangentMode: 0
        m_PreInfinity: 2
        m_PostInfinity: 2
        m_RotationOrder: 4
      minMaxState: 0
    curve:
      scalar: 0.7853981
      maxCurve:
        serializedVersion: 2
        m_Curve:
        - time: 0
          value: 1
          inSlope: 0
          outSlope: 0
          tangentMode: 0
        - time: 1
          value: 1
          inSlope: 0
          outSlope: 0
          tangentMode: 0
        m_PreInfinity: 2
        m_PostInfinity: 2
        m_RotationOrder: 4
      minCurve:
        serializedVersion: 2
        m_Curve:
        - time: 0
          value: 0
          inSlope: 0
          outSlope: 0
          tangentMode: 0
        - time: 1
          value: 0
          inSlope: 0
          outSlope: 0
          tangentMode: 0
        m_PreInfinity: 2
        m_PostInfinity: 2
        m_RotationOrder: 4
      minMaxState: 0
    separateAxes: 0
  ColorModule:
    enabled: 0
    gradient:
      maxGradient:
        key0:
          serializedVersion: 2
          rgba: 4294967295
        key1:
          serializedVersion: 2
          rgba: 4294967295
        key2:
          serializedVersion: 2
          rgba: 0
        key3:
          serializedVersion: 2
          rgba: 0
        key4:
          serializedVersion: 2
          rgba: 0
        key5:
          serializedVersion: 2
          rgba: 0
        key6:
          serializedVersion: 2
          rgba: 0
        key7:
          serializedVersion: 2
          rgba: 0
        ctime0: 0
        ctime1: 65535
        ctime2: 0
        ctime3: 0
        ctime4: 0
        ctime5: 0
        ctime6: 0
        ctime7: 0
        atime0: 0
        atime1: 65535
        atime2: 0
        atime3: 0
        atime4: 0
        atime5: 0
        atime6: 0
        atime7: 0
        m_NumColorKeys: 2
        m_NumAlphaKeys: 2
      minGradient:
        key0:
          serializedVersion: 2
          rgba: 4294967295
        key1:
          serializedVersion: 2
          rgba: 4294967295
        key2:
          serializedVersion: 2
          rgba: 0
        key3:
          serializedVersion: 2
          rgba: 0
        key4:
          serializedVersion: 2
          rgba: 0
        key5:
          serializedVersion: 2
          rgba: 0
        key6:
          serializedVersion: 2
          rgba: 0
        key7:
          serializedVersion: 2
          rgba: 0
        ctime0: 0
        ctime1: 65535
        ctime2: 0
        ctime3: 0
        ctime4: 0
        ctime5: 0
        ctime6: 0
        ctime7: 0
        atime0: 0
        atime1: 65535
        atime2: 0
        atime3: 0
        atime4: 0
        atime5: 0
        atime6: 0
        atime7: 0
        m_NumColorKeys: 2
        m_NumAlphaKeys: 2
      minColor:
        serializedVersion: 2
        rgba: 4294967295
      maxColor:
        serializedVersion: 2
        rgba: 4294967295
      minMaxState: 3
  UVModule:
    enabled: 0
    frameOverTime:
      scalar: 1
      maxCurve:
        serializedVersion: 2
        m_Curve:
        - time: 0
          value: 0
          inSlope: 0
          outSlope: 1
          tangentMode: 0
        - time: 1
          value: 1
          inSlope: 1
          outSlope: 0
          tangentMode: 0
        m_PreInfinity: 2
        m_PostInfinity: 2
        m_RotationOrder: 4
      minCurve:
        serializedVersion: 2
        m_Curve:
        - time: 0
          value: 0
          inSlope: 0
          outSlope: 1
          tangentMode: 0
        - time: 1
          value: 1
          inSlope: 1
          outSlope: 0
          tangentMode: 0
        m_PreInfinity: 2
        m_PostInfinity: 2
        m_RotationOrder: 4
      minMaxState: 1
    tilesX: 1
    tilesY: 1
    animationType: 0
    rowIndex: 0
    cycles: 1
    randomRow: 1
  VelocityModule:
    enabled: 0
    x:
      scalar: 0
      maxCurve:
        serializedVersion: 2
        m_Curve:
        - time: 0
          value: 1
          inSlope: 0
          outSlope: 0
          tangentMode: 0
        - time: 1
          value: 1
          inSlope: 0
          outSlope: 0
          tangentMode: 0
        m_PreInfinity: 2
        m_PostInfinity: 2
        m_RotationOrder: 4
      minCurve:
        serializedVersion: 2
        m_Curve:
        - time: 0
          value: 0
          inSlope: 0
          outSlope: 0
          tangentMode: 0
        - time: 1
          value: 0
          inSlope: 0
          outSlope: 0
          tangentMode: 0
        m_PreInfinity: 2
        m_PostInfinity: 2
        m_RotationOrder: 4
      minMaxState: 0
    y:
      scalar: 0
      maxCurve:
        serializedVersion: 2
        m_Curve:
        - time: 0
          value: 1
          inSlope: 0
          outSlope: 0
          tangentMode: 0
        - time: 1
          value: 1
          inSlope: 0
          outSlope: 0
          tangentMode: 0
        m_PreInfinity: 2
        m_PostInfinity: 2
        m_RotationOrder: 4
      minCurve:
        serializedVersion: 2
        m_Curve:
        - time: 0
          value: 0
          inSlope: 0
          outSlope: 0
          tangentMode: 0
        - time: 1
          value: 0
          inSlope: 0
          outSlope: 0
          tangentMode: 0
        m_PreInfinity: 2
        m_PostInfinity: 2
        m_RotationOrder: 4
      minMaxState: 0
    z:
      scalar: 0
      maxCurve:
        serializedVersion: 2
        m_Curve:
        - time: 0
          value: 1
          inSlope: 0
          outSlope: 0
          tangentMode: 0
        - time: 1
          value: 1
          inSlope: 0
          outSlope: 0
          tangentMode: 0
        m_PreInfinity: 2
        m_PostInfinity: 2
        m_RotationOrder: 4
      minCurve:
        serializedVersion: 2
        m_Curve:
        - time: 0
          value: 0
          inSlope: 0
          outSlope: 0
          tangentMode: 0
        - time: 1
          value: 0
          inSlope: 0
          outSlope: 0
          tangentMode: 0
        m_PreInfinity: 2
        m_PostInfinity: 2
        m_RotationOrder: 4
      minMaxState: 0
    inWorldSpace: 0
  InheritVelocityModule:
    enabled: 0
    m_Mode: 0
    m_Curve:
      scalar: 1
      maxCurve:
        serializedVersion: 2
        m_Curve:
        - time: 0
          value: 1
          inSlope: 0
          outSlope: 0
          tangentMode: 0
        - time: 1
          value: 1
          inSlope: 0
          outSlope: 0
          tangentMode: 0
        m_PreInfinity: 2
        m_PostInfinity: 2
        m_RotationOrder: 4
      minCurve:
        serializedVersion: 2
        m_Curve:
        - time: 0
          value: 0
          inSlope: 0
          outSlope: 0
          tangentMode: 0
        - time: 1
          value: 0
          inSlope: 0
          outSlope: 0
          tangentMode: 0
        m_PreInfinity: 2
        m_PostInfinity: 2
        m_RotationOrder: 4
      minMaxState: 0
  ForceModule:
    enabled: 0
    x:
      scalar: 0
      maxCurve:
        serializedVersion: 2
        m_Curve:
        - time: 0
          value: 1
          inSlope: 0
          outSlope: 0
          tangentMode: 0
        - time: 1
          value: 1
          inSlope: 0
          outSlope: 0
          tangentMode: 0
        m_PreInfinity: 2
        m_PostInfinity: 2
        m_RotationOrder: 4
      minCurve:
        serializedVersion: 2
        m_Curve:
        - time: 0
          value: 0
          inSlope: 0
          outSlope: 0
          tangentMode: 0
        - time: 1
          value: 0
          inSlope: 0
          outSlope: 0
          tangentMode: 0
        m_PreInfinity: 2
        m_PostInfinity: 2
        m_RotationOrder: 4
      minMaxState: 0
    y:
      scalar: 0
      maxCurve:
        serializedVersion: 2
        m_Curve:
        - time: 0
          value: 1
          inSlope: 0
          outSlope: 0
          tangentMode: 0
        - time: 1
          value: 1
          inSlope: 0
          outSlope: 0
          tangentMode: 0
        m_PreInfinity: 2
        m_PostInfinity: 2
        m_RotationOrder: 4
      minCurve:
        serializedVersion: 2
        m_Curve:
        - time: 0
          value: 0
          inSlope: 0
          outSlope: 0
          tangentMode: 0
        - time: 1
          value: 0
          inSlope: 0
          outSlope: 0
          tangentMode: 0
        m_PreInfinity: 2
        m_PostInfinity: 2
        m_RotationOrder: 4
      minMaxState: 0
    z:
      scalar: 0
      maxCurve:
        serializedVersion: 2
        m_Curve:
        - time: 0
          value: 1
          inSlope: 0
          outSlope: 0
          tangentMode: 0
        - time: 1
          value: 1
          inSlope: 0
          outSlope: 0
          tangentMode: 0
        m_PreInfinity: 2
        m_PostInfinity: 2
        m_RotationOrder: 4
      minCurve:
        serializedVersion: 2
        m_Curve:
        - time: 0
          value: 0
          inSlope: 0
          outSlope: 0
          tangentMode: 0
        - time: 1
          value: 0
          inSlope: 0
          outSlope: 0
          tangentMode: 0
        m_PreInfinity: 2
        m_PostInfinity: 2
        m_RotationOrder: 4
      minMaxState: 0
    inWorldSpace: 0
    randomizePerFrame: 0
  ExternalForcesModule:
    enabled: 0
    multiplier: 1
  ClampVelocityModule:
    enabled: 0
    x:
      scalar: 1
      maxCurve:
        serializedVersion: 2
        m_Curve:
        - time: 0
          value: 1
          inSlope: 0
          outSlope: 0
          tangentMode: 0
        - time: 1
          value: 1
          inSlope: 0
          outSlope: 0
          tangentMode: 0
        m_PreInfinity: 2
        m_PostInfinity: 2
        m_RotationOrder: 4
      minCurve:
        serializedVersion: 2
        m_Curve:
        - time: 0
          value: 0
          inSlope: 0
          outSlope: 0
          tangentMode: 0
        - time: 1
          value: 0
          inSlope: 0
          outSlope: 0
          tangentMode: 0
        m_PreInfinity: 2
        m_PostInfinity: 2
        m_RotationOrder: 4
      minMaxState: 0
    y:
      scalar: 1
      maxCurve:
        serializedVersion: 2
        m_Curve:
        - time: 0
          value: 1
          inSlope: 0
          outSlope: 0
          tangentMode: 0
        - time: 1
          value: 1
          inSlope: 0
          outSlope: 0
          tangentMode: 0
        m_PreInfinity: 2
        m_PostInfinity: 2
        m_RotationOrder: 4
      minCurve:
        serializedVersion: 2
        m_Curve:
        - time: 0
          value: 0
          inSlope: 0
          outSlope: 0
          tangentMode: 0
        - time: 1
          value: 0
          inSlope: 0
          outSlope: 0
          tangentMode: 0
        m_PreInfinity: 2
        m_PostInfinity: 2
        m_RotationOrder: 4
      minMaxState: 0
    z:
      scalar: 1
      maxCurve:
        serializedVersion: 2
        m_Curve:
        - time: 0
          value: 1
          inSlope: 0
          outSlope: 0
          tangentMode: 0
        - time: 1
          value: 1
          inSlope: 0
          outSlope: 0
          tangentMode: 0
        m_PreInfinity: 2
        m_PostInfinity: 2
        m_RotationOrder: 4
      minCurve:
        serializedVersion: 2
        m_Curve:
        - time: 0
          value: 0
          inSlope: 0
          outSlope: 0
          tangentMode: 0
        - time: 1
          value: 0
          inSlope: 0
          outSlope: 0
          tangentMode: 0
        m_PreInfinity: 2
        m_PostInfinity: 2
        m_RotationOrder: 4
      minMaxState: 0
    magnitude:
      scalar: 1
      maxCurve:
        serializedVersion: 2
        m_Curve:
        - time: 0
          value: 1
          inSlope: 0
          outSlope: 0
          tangentMode: 0
        - time: 1
          value: 1
          inSlope: 0
          outSlope: 0
          tangentMode: 0
        m_PreInfinity: 2
        m_PostInfinity: 2
        m_RotationOrder: 4
      minCurve:
        serializedVersion: 2
        m_Curve:
        - time: 0
          value: 0
          inSlope: 0
          outSlope: 0
          tangentMode: 0
        - time: 1
          value: 0
          inSlope: 0
          outSlope: 0
          tangentMode: 0
        m_PreInfinity: 2
        m_PostInfinity: 2
        m_RotationOrder: 4
      minMaxState: 0
    separateAxis: 0
    inWorldSpace: 0
    dampen: 1
  SizeBySpeedModule:
    enabled: 0
    curve:
      scalar: 1
      maxCurve:
        serializedVersion: 2
        m_Curve:
        - time: 0
          value: 1
          inSlope: 0
          outSlope: 0
          tangentMode: 0
        - time: 1
          value: 1
          inSlope: 0
          outSlope: 0
          tangentMode: 0
        m_PreInfinity: 2
        m_PostInfinity: 2
        m_RotationOrder: 4
      minCurve:
        serializedVersion: 2
        m_Curve:
        - time: 0
          value: 0
          inSlope: 0
          outSlope: 0
          tangentMode: 0
        - time: 1
          value: 0
          inSlope: 0
          outSlope: 0
          tangentMode: 0
        m_PreInfinity: 2
        m_PostInfinity: 2
        m_RotationOrder: 4
      minMaxState: 1
    range: {x: 0, y: 1}
  RotationBySpeedModule:
    enabled: 0
    x:
      scalar: 1
      maxCurve:
        serializedVersion: 2
        m_Curve:
        - time: 0
          value: 1
          inSlope: 0
          outSlope: 0
          tangentMode: 0
        - time: 1
          value: 1
          inSlope: 0
          outSlope: 0
          tangentMode: 0
        m_PreInfinity: 2
        m_PostInfinity: 2
        m_RotationOrder: 4
      minCurve:
        serializedVersion: 2
        m_Curve:
        - time: 0
          value: 0
          inSlope: 0
          outSlope: 0
          tangentMode: 0
        - time: 1
          value: 0
          inSlope: 0
          outSlope: 0
          tangentMode: 0
        m_PreInfinity: 2
        m_PostInfinity: 2
        m_RotationOrder: 4
      minMaxState: 0
    y:
      scalar: 1
      maxCurve:
        serializedVersion: 2
        m_Curve:
        - time: 0
          value: 1
          inSlope: 0
          outSlope: 0
          tangentMode: 0
        - time: 1
          value: 1
          inSlope: 0
          outSlope: 0
          tangentMode: 0
        m_PreInfinity: 2
        m_PostInfinity: 2
        m_RotationOrder: 4
      minCurve:
        serializedVersion: 2
        m_Curve:
        - time: 0
          value: 0
          inSlope: 0
          outSlope: 0
          tangentMode: 0
        - time: 1
          value: 0
          inSlope: 0
          outSlope: 0
          tangentMode: 0
        m_PreInfinity: 2
        m_PostInfinity: 2
        m_RotationOrder: 4
      minMaxState: 0
    curve:
      scalar: 0.7853981
      maxCurve:
        serializedVersion: 2
        m_Curve:
        - time: 0
          value: 1
          inSlope: 0
          outSlope: 0
          tangentMode: 0
        - time: 1
          value: 1
          inSlope: 0
          outSlope: 0
          tangentMode: 0
        m_PreInfinity: 2
        m_PostInfinity: 2
        m_RotationOrder: 4
      minCurve:
        serializedVersion: 2
        m_Curve:
        - time: 0
          value: 0
          inSlope: 0
          outSlope: 0
          tangentMode: 0
        - time: 1
          value: 0
          inSlope: 0
          outSlope: 0
          tangentMode: 0
        m_PreInfinity: 2
        m_PostInfinity: 2
        m_RotationOrder: 4
      minMaxState: 0
    separateAxes: 0
    range: {x: 0, y: 1}
  ColorBySpeedModule:
    enabled: 0
    gradient:
      maxGradient:
        key0:
          serializedVersion: 2
          rgba: 4294967295
        key1:
          serializedVersion: 2
          rgba: 4294967295
        key2:
          serializedVersion: 2
          rgba: 0
        key3:
          serializedVersion: 2
          rgba: 0
        key4:
          serializedVersion: 2
          rgba: 0
        key5:
          serializedVersion: 2
          rgba: 0
        key6:
          serializedVersion: 2
          rgba: 0
        key7:
          serializedVersion: 2
          rgba: 0
        ctime0: 0
        ctime1: 65535
        ctime2: 0
        ctime3: 0
        ctime4: 0
        ctime5: 0
        ctime6: 0
        ctime7: 0
        atime0: 0
        atime1: 65535
        atime2: 0
        atime3: 0
        atime4: 0
        atime5: 0
        atime6: 0
        atime7: 0
        m_NumColorKeys: 2
        m_NumAlphaKeys: 2
      minGradient:
        key0:
          serializedVersion: 2
          rgba: 4294967295
        key1:
          serializedVersion: 2
          rgba: 4294967295
        key2:
          serializedVersion: 2
          rgba: 0
        key3:
          serializedVersion: 2
          rgba: 0
        key4:
          serializedVersion: 2
          rgba: 0
        key5:
          serializedVersion: 2
          rgba: 0
        key6:
          serializedVersion: 2
          rgba: 0
        key7:
          serializedVersion: 2
          rgba: 0
        ctime0: 0
        ctime1: 65535
        ctime2: 0
        ctime3: 0
        ctime4: 0
        ctime5: 0
        ctime6: 0
        ctime7: 0
        atime0: 0
        atime1: 65535
        atime2: 0
        atime3: 0
        atime4: 0
        atime5: 0
        atime6: 0
        atime7: 0
        m_NumColorKeys: 2
        m_NumAlphaKeys: 2
      minColor:
        serializedVersion: 2
        rgba: 4294967295
      maxColor:
        serializedVersion: 2
        rgba: 4294967295
      minMaxState: 1
    range: {x: 0, y: 1}
  CollisionModule:
    enabled: 0
    serializedVersion: 2
    type: 0
    collisionMode: 0
    plane0: {fileID: 0}
    plane1: {fileID: 0}
    plane2: {fileID: 0}
    plane3: {fileID: 0}
    plane4: {fileID: 0}
    plane5: {fileID: 0}
    m_Dampen:
      scalar: 0
      maxCurve:
        serializedVersion: 2
        m_Curve:
        - time: 0
          value: 1
          inSlope: 0
          outSlope: 0
          tangentMode: 0
        - time: 1
          value: 1
          inSlope: 0
          outSlope: 0
          tangentMode: 0
        m_PreInfinity: 2
        m_PostInfinity: 2
        m_RotationOrder: 4
      minCurve:
        serializedVersion: 2
        m_Curve:
        - time: 0
          value: 0
          inSlope: 0
          outSlope: 0
          tangentMode: 0
        - time: 1
          value: 0
          inSlope: 0
          outSlope: 0
          tangentMode: 0
        m_PreInfinity: 2
        m_PostInfinity: 2
        m_RotationOrder: 4
      minMaxState: 0
    m_Bounce:
      scalar: 1
      maxCurve:
        serializedVersion: 2
        m_Curve:
        - time: 0
          value: 1
          inSlope: 0
          outSlope: 0
          tangentMode: 0
        - time: 1
          value: 1
          inSlope: 0
          outSlope: 0
          tangentMode: 0
        m_PreInfinity: 2
        m_PostInfinity: 2
        m_RotationOrder: 4
      minCurve:
        serializedVersion: 2
        m_Curve:
        - time: 0
          value: 0
          inSlope: 0
          outSlope: 0
          tangentMode: 0
        - time: 1
          value: 0
          inSlope: 0
          outSlope: 0
          tangentMode: 0
        m_PreInfinity: 2
        m_PostInfinity: 2
        m_RotationOrder: 4
      minMaxState: 0
    m_EnergyLossOnCollision:
      scalar: 0
      maxCurve:
        serializedVersion: 2
        m_Curve:
        - time: 0
          value: 1
          inSlope: 0
          outSlope: 0
          tangentMode: 0
        - time: 1
          value: 1
          inSlope: 0
          outSlope: 0
          tangentMode: 0
        m_PreInfinity: 2
        m_PostInfinity: 2
        m_RotationOrder: 4
      minCurve:
        serializedVersion: 2
        m_Curve:
        - time: 0
          value: 0
          inSlope: 0
          outSlope: 0
          tangentMode: 0
        - time: 1
          value: 0
          inSlope: 0
          outSlope: 0
          tangentMode: 0
        m_PreInfinity: 2
        m_PostInfinity: 2
        m_RotationOrder: 4
      minMaxState: 0
    minKillSpeed: 0
    radiusScale: 1
    collidesWith:
      serializedVersion: 2
      m_Bits: 4294967295
    maxCollisionShapes: 256
    quality: 0
    voxelSize: 0.5
    collisionMessages: 0
    collidesWithDynamic: 1
    interiorCollisions: 1
  SubModule:
    enabled: 0
    subEmitterBirth: {fileID: 0}
    subEmitterBirth1: {fileID: 0}
    subEmitterCollision: {fileID: 0}
    subEmitterCollision1: {fileID: 0}
    subEmitterDeath: {fileID: 0}
    subEmitterDeath1: {fileID: 0}
--- !u!4 &179256134
Transform:
  m_ObjectHideFlags: 0
  m_PrefabParentObject: {fileID: 430450, guid: 0e66f862ac3e68c429da9f9aac1bb079, type: 2}
  m_PrefabInternal: {fileID: 914535768}
  m_GameObject: {fileID: 179256131}
  m_LocalRotation: {x: 0, y: 0, z: 0, w: 1}
  m_LocalPosition: {x: 0, y: 0, z: -5.95}
  m_LocalScale: {x: 1, y: 1, z: 1}
  m_Children: []
  m_Father: {fileID: 0}
  m_RootOrder: 4
--- !u!1001 &397129625
Prefab:
  m_ObjectHideFlags: 0
  serializedVersion: 2
  m_Modification:
    m_TransformParent: {fileID: 0}
    m_Modifications:
    - target: {fileID: 488912, guid: a0bba650a2f3bc74296aad288c08d469, type: 2}
      propertyPath: m_LocalPosition.x
      value: 30.8700008
      objectReference: {fileID: 0}
    - target: {fileID: 488912, guid: a0bba650a2f3bc74296aad288c08d469, type: 2}
      propertyPath: m_LocalPosition.y
      value: 37.9500008
      objectReference: {fileID: 0}
    - target: {fileID: 488912, guid: a0bba650a2f3bc74296aad288c08d469, type: 2}
      propertyPath: m_LocalPosition.z
      value: -.0799999982
      objectReference: {fileID: 0}
    - target: {fileID: 488912, guid: a0bba650a2f3bc74296aad288c08d469, type: 2}
      propertyPath: m_LocalRotation.x
      value: .800545216
      objectReference: {fileID: 0}
    - target: {fileID: 488912, guid: a0bba650a2f3bc74296aad288c08d469, type: 2}
      propertyPath: m_LocalRotation.y
      value: .238419995
      objectReference: {fileID: 0}
    - target: {fileID: 488912, guid: a0bba650a2f3bc74296aad288c08d469, type: 2}
      propertyPath: m_LocalRotation.z
      value: .309837729
      objectReference: {fileID: 0}
    - target: {fileID: 488912, guid: a0bba650a2f3bc74296aad288c08d469, type: 2}
      propertyPath: m_LocalRotation.w
      value: .4541848
      objectReference: {fileID: 0}
    - target: {fileID: 488912, guid: a0bba650a2f3bc74296aad288c08d469, type: 2}
      propertyPath: m_RootOrder
      value: 0
      objectReference: {fileID: 0}
    - target: {fileID: 488912, guid: a0bba650a2f3bc74296aad288c08d469, type: 2}
      propertyPath: m_LocalScale.x
      value: .585240483
      objectReference: {fileID: 0}
    - target: {fileID: 488912, guid: a0bba650a2f3bc74296aad288c08d469, type: 2}
      propertyPath: m_LocalScale.y
      value: .585240483
      objectReference: {fileID: 0}
    - target: {fileID: 488912, guid: a0bba650a2f3bc74296aad288c08d469, type: 2}
      propertyPath: m_LocalScale.z
      value: .585240483
      objectReference: {fileID: 0}
    - target: {fileID: 2390014, guid: a0bba650a2f3bc74296aad288c08d469, type: 2}
      propertyPath: m_Materials.Array.data[0]
      value: 
      objectReference: {fileID: 2100000, guid: 0281bf8d7621d6c40a73e84e341e80b3, type: 2}
    m_RemovedComponents: []
  m_ParentPrefab: {fileID: 100100000, guid: a0bba650a2f3bc74296aad288c08d469, type: 2}
  m_RootGameObject: {fileID: 1189934633}
  m_IsPrefabParent: 0
--- !u!1 &399666366
GameObject:
  m_ObjectHideFlags: 0
  m_PrefabParentObject: {fileID: 109258, guid: c493d3d03cbce404cb4426d18901b4a2, type: 2}
  m_PrefabInternal: {fileID: 1917071091}
  serializedVersion: 4
  m_Component:
  - 4: {fileID: 399666369}
  - 33: {fileID: 399666368}
  - 23: {fileID: 399666367}
  m_Layer: 0
  m_Name: Nebula_Medium 3
  m_TagString: Untagged
  m_Icon: {fileID: 0}
  m_NavMeshLayer: 0
  m_StaticEditorFlags: 0
  m_IsActive: 1
--- !u!23 &399666367
MeshRenderer:
  m_ObjectHideFlags: 0
  m_PrefabParentObject: {fileID: 2395338, guid: c493d3d03cbce404cb4426d18901b4a2,
    type: 2}
  m_PrefabInternal: {fileID: 1917071091}
  m_GameObject: {fileID: 399666366}
  m_Enabled: 1
  m_CastShadows: 1
  m_ReceiveShadows: 1
  m_Materials:
  - {fileID: 2100000, guid: 37a0a7a86d41b3e43b7a4fdb260ab66b, type: 2}
  m_SubsetIndices: 
  m_StaticBatchRoot: {fileID: 0}
  m_UseLightProbes: 1
  m_ReflectionProbeUsage: 1
  m_ProbeAnchor: {fileID: 0}
  m_ScaleInLightmap: 1
  m_PreserveUVs: 0
  m_IgnoreNormalsForChartDetection: 0
  m_ImportantGI: 0
  m_MinimumChartSize: 4
  m_AutoUVMaxDistance: 0.5
  m_AutoUVMaxAngle: 89
  m_LightmapParameters: {fileID: 0}
  m_SortingLayerID: 0
  m_SortingOrder: 0
--- !u!33 &399666368
MeshFilter:
  m_ObjectHideFlags: 0
  m_PrefabParentObject: {fileID: 3368128, guid: c493d3d03cbce404cb4426d18901b4a2,
    type: 2}
  m_PrefabInternal: {fileID: 1917071091}
  m_GameObject: {fileID: 399666366}
  m_Mesh: {fileID: 4300002, guid: 0e93fe3bf6b9ebd48857f39dfa5b9def, type: 3}
--- !u!4 &399666369
Transform:
  m_ObjectHideFlags: 0
  m_PrefabParentObject: {fileID: 435914, guid: c493d3d03cbce404cb4426d18901b4a2, type: 2}
  m_PrefabInternal: {fileID: 1917071091}
  m_GameObject: {fileID: 399666366}
  m_LocalRotation: {x: 0.6120909, y: -0.18988179, z: 0.25319168, w: 0.72469556}
  m_LocalPosition: {x: 0, y: 0, z: 0}
  m_LocalScale: {x: 0.98, y: 0.98, z: 0.98}
  m_Children: []
  m_Father: {fileID: 0}
  m_RootOrder: 0
--- !u!1001 &406477949
Prefab:
  m_ObjectHideFlags: 0
  serializedVersion: 2
  m_Modification:
    m_TransformParent: {fileID: 0}
    m_Modifications:
    - target: {fileID: 486404, guid: 26e950ddae2da3a4581a7692739c06fc, type: 2}
      propertyPath: m_LocalPosition.x
      value: 7.86000013
      objectReference: {fileID: 0}
    - target: {fileID: 486404, guid: 26e950ddae2da3a4581a7692739c06fc, type: 2}
      propertyPath: m_LocalPosition.y
      value: -.99000001
      objectReference: {fileID: 0}
    - target: {fileID: 486404, guid: 26e950ddae2da3a4581a7692739c06fc, type: 2}
      propertyPath: m_LocalPosition.z
      value: 7.53000021
      objectReference: {fileID: 0}
    - target: {fileID: 486404, guid: 26e950ddae2da3a4581a7692739c06fc, type: 2}
      propertyPath: m_LocalRotation.x
      value: -.0585842244
      objectReference: {fileID: 0}
    - target: {fileID: 486404, guid: 26e950ddae2da3a4581a7692739c06fc, type: 2}
      propertyPath: m_LocalRotation.y
      value: -.0868813694
      objectReference: {fileID: 0}
    - target: {fileID: 486404, guid: 26e950ddae2da3a4581a7692739c06fc, type: 2}
      propertyPath: m_LocalRotation.z
      value: .112520598
      objectReference: {fileID: 0}
    - target: {fileID: 486404, guid: 26e950ddae2da3a4581a7692739c06fc, type: 2}
      propertyPath: m_LocalRotation.w
      value: .988108695
      objectReference: {fileID: 0}
    - target: {fileID: 486404, guid: 26e950ddae2da3a4581a7692739c06fc, type: 2}
      propertyPath: m_RootOrder
      value: 3
      objectReference: {fileID: 0}
    - target: {fileID: 486404, guid: 26e950ddae2da3a4581a7692739c06fc, type: 2}
      propertyPath: m_LocalScale.x
      value: 1.22414219
      objectReference: {fileID: 0}
    - target: {fileID: 486404, guid: 26e950ddae2da3a4581a7692739c06fc, type: 2}
      propertyPath: m_LocalScale.y
      value: 1.22414231
      objectReference: {fileID: 0}
    - target: {fileID: 486404, guid: 26e950ddae2da3a4581a7692739c06fc, type: 2}
      propertyPath: m_LocalScale.z
      value: 1.22414231
      objectReference: {fileID: 0}
    m_RemovedComponents: []
  m_ParentPrefab: {fileID: 100100000, guid: 26e950ddae2da3a4581a7692739c06fc, type: 2}
  m_RootGameObject: {fileID: 698135149}
  m_IsPrefabParent: 0
--- !u!1 &419080817
GameObject:
  m_ObjectHideFlags: 0
  m_PrefabParentObject: {fileID: 109258, guid: c493d3d03cbce404cb4426d18901b4a2, type: 2}
  m_PrefabInternal: {fileID: 1859424811}
  serializedVersion: 4
  m_Component:
  - 4: {fileID: 419080820}
  - 33: {fileID: 419080819}
  - 23: {fileID: 419080818}
  m_Layer: 0
  m_Name: Nebula_Medium 1
  m_TagString: Untagged
  m_Icon: {fileID: 0}
  m_NavMeshLayer: 0
  m_StaticEditorFlags: 0
  m_IsActive: 1
--- !u!23 &419080818
MeshRenderer:
  m_ObjectHideFlags: 0
  m_PrefabParentObject: {fileID: 2395338, guid: c493d3d03cbce404cb4426d18901b4a2,
    type: 2}
  m_PrefabInternal: {fileID: 1859424811}
  m_GameObject: {fileID: 419080817}
  m_Enabled: 1
  m_CastShadows: 1
  m_ReceiveShadows: 1
  m_Materials:
  - {fileID: 2100000, guid: ef53862a251c3ad4d95b2b376608ee3f, type: 2}
  m_SubsetIndices: 
  m_StaticBatchRoot: {fileID: 0}
  m_UseLightProbes: 1
  m_ReflectionProbeUsage: 1
  m_ProbeAnchor: {fileID: 0}
  m_ScaleInLightmap: 1
  m_PreserveUVs: 0
  m_IgnoreNormalsForChartDetection: 0
  m_ImportantGI: 0
  m_MinimumChartSize: 4
  m_AutoUVMaxDistance: 0.5
  m_AutoUVMaxAngle: 89
  m_LightmapParameters: {fileID: 0}
  m_SortingLayerID: 0
  m_SortingOrder: 0
--- !u!33 &419080819
MeshFilter:
  m_ObjectHideFlags: 0
  m_PrefabParentObject: {fileID: 3368128, guid: c493d3d03cbce404cb4426d18901b4a2,
    type: 2}
  m_PrefabInternal: {fileID: 1859424811}
  m_GameObject: {fileID: 419080817}
  m_Mesh: {fileID: 4300002, guid: 0e93fe3bf6b9ebd48857f39dfa5b9def, type: 3}
--- !u!4 &419080820
Transform:
  m_ObjectHideFlags: 0
  m_PrefabParentObject: {fileID: 435914, guid: c493d3d03cbce404cb4426d18901b4a2, type: 2}
  m_PrefabInternal: {fileID: 1859424811}
  m_GameObject: {fileID: 419080817}
  m_LocalRotation: {x: 0.8285504, y: 0.2506306, z: -0.11829205, w: 0.48651364}
  m_LocalPosition: {x: 0, y: 0, z: 0}
  m_LocalScale: {x: 0.98, y: 0.98, z: 0.98}
  m_Children: []
  m_Father: {fileID: 0}
  m_RootOrder: 6
--- !u!1001 &619032347
Prefab:
  m_ObjectHideFlags: 0
  serializedVersion: 2
  m_Modification:
    m_TransformParent: {fileID: 0}
    m_Modifications:
    - target: {fileID: 476934, guid: a6acb94124ef3b348ab02b76e97f1189, type: 2}
      propertyPath: m_LocalPosition.x
      value: 0
      objectReference: {fileID: 0}
    - target: {fileID: 476934, guid: a6acb94124ef3b348ab02b76e97f1189, type: 2}
      propertyPath: m_LocalPosition.y
      value: 0
      objectReference: {fileID: 0}
    - target: {fileID: 476934, guid: a6acb94124ef3b348ab02b76e97f1189, type: 2}
      propertyPath: m_LocalPosition.z
      value: 0
      objectReference: {fileID: 0}
    - target: {fileID: 476934, guid: a6acb94124ef3b348ab02b76e97f1189, type: 2}
      propertyPath: m_LocalRotation.x
      value: .550961316
      objectReference: {fileID: 0}
    - target: {fileID: 476934, guid: a6acb94124ef3b348ab02b76e97f1189, type: 2}
      propertyPath: m_LocalRotation.y
      value: -.109600745
      objectReference: {fileID: 0}
    - target: {fileID: 476934, guid: a6acb94124ef3b348ab02b76e97f1189, type: 2}
      propertyPath: m_LocalRotation.z
      value: .0665298551
      objectReference: {fileID: 0}
    - target: {fileID: 476934, guid: a6acb94124ef3b348ab02b76e97f1189, type: 2}
      propertyPath: m_LocalRotation.w
      value: .824622989
      objectReference: {fileID: 0}
    - target: {fileID: 476934, guid: a6acb94124ef3b348ab02b76e97f1189, type: 2}
      propertyPath: m_RootOrder
      value: 6
      objectReference: {fileID: 0}
    - target: {fileID: 2361502, guid: a6acb94124ef3b348ab02b76e97f1189, type: 2}
      propertyPath: m_Materials.Array.data[0]
      value: 
      objectReference: {fileID: 2100000, guid: d6938b912e9f2864fae95d7c177eac12, type: 2}
    m_RemovedComponents: []
  m_ParentPrefab: {fileID: 100100000, guid: a6acb94124ef3b348ab02b76e97f1189, type: 2}
  m_RootGameObject: {fileID: 1865949505}
  m_IsPrefabParent: 0
--- !u!1 &675667106
GameObject:
  m_ObjectHideFlags: 0
  m_PrefabParentObject: {fileID: 0}
  m_PrefabInternal: {fileID: 0}
  serializedVersion: 4
  m_Component:
  - 4: {fileID: 675667111}
  - 20: {fileID: 675667110}
  - 92: {fileID: 675667109}
  - 124: {fileID: 675667108}
  - 81: {fileID: 675667107}
  m_Layer: 0
  m_Name: Main Camera
  m_TagString: MainCamera
  m_Icon: {fileID: 0}
  m_NavMeshLayer: 0
  m_StaticEditorFlags: 0
  m_IsActive: 1
--- !u!81 &675667107
AudioListener:
  m_ObjectHideFlags: 0
  m_PrefabParentObject: {fileID: 0}
  m_PrefabInternal: {fileID: 0}
  m_GameObject: {fileID: 675667106}
  m_Enabled: 1
--- !u!124 &675667108
Behaviour:
  m_ObjectHideFlags: 0
  m_PrefabParentObject: {fileID: 0}
  m_PrefabInternal: {fileID: 0}
  m_GameObject: {fileID: 675667106}
  m_Enabled: 1
--- !u!92 &675667109
Behaviour:
  m_ObjectHideFlags: 0
  m_PrefabParentObject: {fileID: 0}
  m_PrefabInternal: {fileID: 0}
  m_GameObject: {fileID: 675667106}
  m_Enabled: 1
--- !u!20 &675667110
Camera:
  m_ObjectHideFlags: 0
  m_PrefabParentObject: {fileID: 0}
  m_PrefabInternal: {fileID: 0}
  m_GameObject: {fileID: 675667106}
  m_Enabled: 1
  serializedVersion: 2
  m_ClearFlags: 1
  m_BackGroundColor: {r: 0.19215687, g: 0.3019608, b: 0.4745098, a: 0.019607844}
  m_NormalizedViewPortRect:
    serializedVersion: 2
    x: 0
    y: 0
    width: 1
    height: 1
  near clip plane: 0.3
  far clip plane: 1000
  field of view: 60
  orthographic: 0
  orthographic size: 5
  m_Depth: -1
  m_CullingMask:
    serializedVersion: 2
    m_Bits: 4294967295
  m_RenderingPath: -1
  m_TargetTexture: {fileID: 0}
  m_TargetDisplay: 0
  m_TargetEye: 3
  m_HDR: 0
  m_OcclusionCulling: 1
  m_StereoConvergence: 10
  m_StereoSeparation: 0.022
  m_StereoMirrorMode: 0
--- !u!4 &675667111
Transform:
  m_ObjectHideFlags: 0
  m_PrefabParentObject: {fileID: 0}
  m_PrefabInternal: {fileID: 0}
  m_GameObject: {fileID: 675667106}
  m_LocalRotation: {x: 0, y: 0, z: 0, w: 1}
  m_LocalPosition: {x: 0, y: 1, z: -10}
  m_LocalScale: {x: 1, y: 1, z: 1}
  m_Children: []
  m_Father: {fileID: 0}
  m_RootOrder: 13
--- !u!1001 &691910644
Prefab:
  m_ObjectHideFlags: 0
  serializedVersion: 2
  m_Modification:
    m_TransformParent: {fileID: 0}
    m_Modifications:
    - target: {fileID: 453146, guid: 410b5de8a6fad3b4491308f2a1c87efa, type: 2}
      propertyPath: m_LocalPosition.x
      value: 0
      objectReference: {fileID: 0}
    - target: {fileID: 453146, guid: 410b5de8a6fad3b4491308f2a1c87efa, type: 2}
      propertyPath: m_LocalPosition.y
      value: 0
      objectReference: {fileID: 0}
    - target: {fileID: 453146, guid: 410b5de8a6fad3b4491308f2a1c87efa, type: 2}
      propertyPath: m_LocalPosition.z
      value: 0
      objectReference: {fileID: 0}
    - target: {fileID: 453146, guid: 410b5de8a6fad3b4491308f2a1c87efa, type: 2}
      propertyPath: m_LocalRotation.x
      value: 0
      objectReference: {fileID: 0}
    - target: {fileID: 453146, guid: 410b5de8a6fad3b4491308f2a1c87efa, type: 2}
      propertyPath: m_LocalRotation.y
      value: 0
      objectReference: {fileID: 0}
    - target: {fileID: 453146, guid: 410b5de8a6fad3b4491308f2a1c87efa, type: 2}
      propertyPath: m_LocalRotation.z
      value: 0
      objectReference: {fileID: 0}
    - target: {fileID: 453146, guid: 410b5de8a6fad3b4491308f2a1c87efa, type: 2}
      propertyPath: m_LocalRotation.w
      value: 1
      objectReference: {fileID: 0}
    - target: {fileID: 453146, guid: 410b5de8a6fad3b4491308f2a1c87efa, type: 2}
      propertyPath: m_RootOrder
      value: 13
      objectReference: {fileID: 0}
    - target: {fileID: 2315806, guid: 410b5de8a6fad3b4491308f2a1c87efa, type: 2}
      propertyPath: m_Materials.Array.data[0]
      value: 
      objectReference: {fileID: 2100000, guid: b6cca299120e7b64286a9608a92754cc, type: 2}
    m_RemovedComponents: []
  m_ParentPrefab: {fileID: 100100000, guid: 410b5de8a6fad3b4491308f2a1c87efa, type: 2}
  m_RootGameObject: {fileID: 1596396998}
  m_IsPrefabParent: 0
--- !u!1 &698135149
GameObject:
  m_ObjectHideFlags: 0
  m_PrefabParentObject: {fileID: 126364, guid: 26e950ddae2da3a4581a7692739c06fc, type: 2}
  m_PrefabInternal: {fileID: 406477949}
  serializedVersion: 4
  m_Component:
  - 4: {fileID: 698135152}
  - 33: {fileID: 698135151}
  - 23: {fileID: 698135150}
  m_Layer: 0
  m_Name: Gas_Planet_C
  m_TagString: Untagged
  m_Icon: {fileID: 0}
  m_NavMeshLayer: 0
  m_StaticEditorFlags: 0
  m_IsActive: 1
--- !u!23 &698135150
MeshRenderer:
  m_ObjectHideFlags: 0
  m_PrefabParentObject: {fileID: 2348946, guid: 26e950ddae2da3a4581a7692739c06fc,
    type: 2}
  m_PrefabInternal: {fileID: 406477949}
  m_GameObject: {fileID: 698135149}
  m_Enabled: 1
  m_CastShadows: 1
  m_ReceiveShadows: 1
  m_Materials:
  - {fileID: 2100000, guid: f8ffae789d3897c41af6cc9cda7cca0f, type: 2}
  m_SubsetIndices: 
  m_StaticBatchRoot: {fileID: 0}
  m_UseLightProbes: 1
  m_ReflectionProbeUsage: 1
  m_ProbeAnchor: {fileID: 0}
  m_ScaleInLightmap: 1
  m_PreserveUVs: 0
  m_IgnoreNormalsForChartDetection: 0
  m_ImportantGI: 0
  m_MinimumChartSize: 4
  m_AutoUVMaxDistance: 0.5
  m_AutoUVMaxAngle: 89
  m_LightmapParameters: {fileID: 0}
  m_SortingLayerID: 0
  m_SortingOrder: 0
--- !u!33 &698135151
MeshFilter:
  m_ObjectHideFlags: 0
  m_PrefabParentObject: {fileID: 3356058, guid: 26e950ddae2da3a4581a7692739c06fc,
    type: 2}
  m_PrefabInternal: {fileID: 406477949}
  m_GameObject: {fileID: 698135149}
  m_Mesh: {fileID: 4300028, guid: 239b7f955033e6a43a5bb6e9999d3f34, type: 3}
--- !u!4 &698135152
Transform:
  m_ObjectHideFlags: 0
  m_PrefabParentObject: {fileID: 486404, guid: 26e950ddae2da3a4581a7692739c06fc, type: 2}
  m_PrefabInternal: {fileID: 406477949}
  m_GameObject: {fileID: 698135149}
  m_LocalRotation: {x: -0.058584224, y: -0.08688137, z: 0.1125206, w: 0.9881087}
  m_LocalPosition: {x: 7.86, y: -0.99, z: 7.53}
  m_LocalScale: {x: 1.2241422, y: 1.2241423, z: 1.2241423}
  m_Children: []
  m_Father: {fileID: 0}
  m_RootOrder: 8
--- !u!1001 &882961440
Prefab:
  m_ObjectHideFlags: 0
  serializedVersion: 2
  m_Modification:
    m_TransformParent: {fileID: 0}
    m_Modifications:
    - target: {fileID: 454596, guid: 5e146687c6a67f2418267f6d12ad2e83, type: 2}
      propertyPath: m_LocalPosition.x
      value: 7.80999994
      objectReference: {fileID: 0}
    - target: {fileID: 454596, guid: 5e146687c6a67f2418267f6d12ad2e83, type: 2}
      propertyPath: m_LocalPosition.y
      value: 0
      objectReference: {fileID: 0}
    - target: {fileID: 454596, guid: 5e146687c6a67f2418267f6d12ad2e83, type: 2}
      propertyPath: m_LocalPosition.z
      value: 7.48999977
      objectReference: {fileID: 0}
    - target: {fileID: 454596, guid: 5e146687c6a67f2418267f6d12ad2e83, type: 2}
      propertyPath: m_LocalRotation.x
      value: -.0585842244
      objectReference: {fileID: 0}
    - target: {fileID: 454596, guid: 5e146687c6a67f2418267f6d12ad2e83, type: 2}
      propertyPath: m_LocalRotation.y
      value: -.0868813694
      objectReference: {fileID: 0}
    - target: {fileID: 454596, guid: 5e146687c6a67f2418267f6d12ad2e83, type: 2}
      propertyPath: m_LocalRotation.z
      value: .112520598
      objectReference: {fileID: 0}
    - target: {fileID: 454596, guid: 5e146687c6a67f2418267f6d12ad2e83, type: 2}
      propertyPath: m_LocalRotation.w
      value: .988108695
      objectReference: {fileID: 0}
    - target: {fileID: 454596, guid: 5e146687c6a67f2418267f6d12ad2e83, type: 2}
      propertyPath: m_RootOrder
      value: 6
      objectReference: {fileID: 0}
    - target: {fileID: 454596, guid: 5e146687c6a67f2418267f6d12ad2e83, type: 2}
      propertyPath: m_LocalScale.x
      value: 1.22414219
      objectReference: {fileID: 0}
    - target: {fileID: 454596, guid: 5e146687c6a67f2418267f6d12ad2e83, type: 2}
      propertyPath: m_LocalScale.y
      value: 1.22414231
      objectReference: {fileID: 0}
    - target: {fileID: 454596, guid: 5e146687c6a67f2418267f6d12ad2e83, type: 2}
      propertyPath: m_LocalScale.z
      value: 1.22414231
      objectReference: {fileID: 0}
    m_RemovedComponents: []
  m_ParentPrefab: {fileID: 100100000, guid: 5e146687c6a67f2418267f6d12ad2e83, type: 2}
  m_RootGameObject: {fileID: 1098630100}
  m_IsPrefabParent: 0
--- !u!1001 &914535768
Prefab:
  m_ObjectHideFlags: 0
  serializedVersion: 2
  m_Modification:
    m_TransformParent: {fileID: 0}
    m_Modifications:
    - target: {fileID: 430450, guid: 0e66f862ac3e68c429da9f9aac1bb079, type: 2}
      propertyPath: m_LocalPosition.x
      value: 0
      objectReference: {fileID: 0}
    - target: {fileID: 430450, guid: 0e66f862ac3e68c429da9f9aac1bb079, type: 2}
      propertyPath: m_LocalPosition.y
      value: 0
      objectReference: {fileID: 0}
    - target: {fileID: 430450, guid: 0e66f862ac3e68c429da9f9aac1bb079, type: 2}
      propertyPath: m_LocalPosition.z
      value: -5.94999981
      objectReference: {fileID: 0}
    - target: {fileID: 430450, guid: 0e66f862ac3e68c429da9f9aac1bb079, type: 2}
      propertyPath: m_LocalRotation.x
      value: 0
      objectReference: {fileID: 0}
    - target: {fileID: 430450, guid: 0e66f862ac3e68c429da9f9aac1bb079, type: 2}
      propertyPath: m_LocalRotation.y
      value: 0
      objectReference: {fileID: 0}
    - target: {fileID: 430450, guid: 0e66f862ac3e68c429da9f9aac1bb079, type: 2}
      propertyPath: m_LocalRotation.z
      value: 0
      objectReference: {fileID: 0}
    - target: {fileID: 430450, guid: 0e66f862ac3e68c429da9f9aac1bb079, type: 2}
      propertyPath: m_LocalRotation.w
      value: 1
      objectReference: {fileID: 0}
    - target: {fileID: 430450, guid: 0e66f862ac3e68c429da9f9aac1bb079, type: 2}
      propertyPath: m_RootOrder
      value: 0
      objectReference: {fileID: 0}
    m_RemovedComponents: []
  m_ParentPrefab: {fileID: 100100000, guid: 0e66f862ac3e68c429da9f9aac1bb079, type: 2}
  m_RootGameObject: {fileID: 179256131}
  m_IsPrefabParent: 0
--- !u!1 &1082332029
GameObject:
  m_ObjectHideFlags: 0
  m_PrefabParentObject: {fileID: 0}
  m_PrefabInternal: {fileID: 0}
  serializedVersion: 4
  m_Component:
  - 4: {fileID: 1082332031}
  - 108: {fileID: 1082332030}
  m_Layer: 0
  m_Name: Directional Light
  m_TagString: Untagged
  m_Icon: {fileID: 0}
  m_NavMeshLayer: 0
  m_StaticEditorFlags: 0
  m_IsActive: 1
--- !u!108 &1082332030
Light:
  m_ObjectHideFlags: 0
  m_PrefabParentObject: {fileID: 0}
  m_PrefabInternal: {fileID: 0}
  m_GameObject: {fileID: 1082332029}
  m_Enabled: 1
  serializedVersion: 6
  m_Type: 1
  m_Color: {r: 1, g: 0.95686275, b: 0.8392157, a: 1}
  m_Intensity: 1
  m_Range: 10
  m_SpotAngle: 30
  m_CookieSize: 10
  m_Shadows:
    m_Type: 2
    m_Resolution: -1
    m_Strength: 1
    m_Bias: 0.05
    m_NormalBias: 0.4
    m_NearPlane: 0.2
  m_Cookie: {fileID: 0}
  m_DrawHalo: 0
  m_Flare: {fileID: 0}
  m_RenderMode: 0
  m_CullingMask:
    serializedVersion: 2
    m_Bits: 4294967295
  m_Lightmapping: 4
  m_BounceIntensity: 1
  m_ShadowRadius: 0
  m_ShadowAngle: 0
  m_AreaSize: {x: 1, y: 1}
--- !u!4 &1082332031
Transform:
  m_ObjectHideFlags: 0
  m_PrefabParentObject: {fileID: 0}
  m_PrefabInternal: {fileID: 0}
  m_GameObject: {fileID: 1082332029}
  m_LocalRotation: {x: 0.20000538, y: 0.7961639, z: -0.106284805, w: 0.56109226}
  m_LocalPosition: {x: -61.6, y: 34.4, z: 25.4}
  m_LocalScale: {x: 1, y: 1, z: 1}
  m_Children: []
  m_Father: {fileID: 0}
  m_RootOrder: 14
--- !u!1 &1098630100
GameObject:
  m_ObjectHideFlags: 0
  m_PrefabParentObject: {fileID: 160724, guid: 5e146687c6a67f2418267f6d12ad2e83, type: 2}
  m_PrefabInternal: {fileID: 882961440}
  serializedVersion: 4
  m_Component:
  - 4: {fileID: 1098630103}
  - 33: {fileID: 1098630102}
  - 23: {fileID: 1098630101}
  m_Layer: 0
  m_Name: Planet_Ring_D2
  m_TagString: Untagged
  m_Icon: {fileID: 0}
  m_NavMeshLayer: 0
  m_StaticEditorFlags: 0
  m_IsActive: 1
--- !u!23 &1098630101
MeshRenderer:
  m_ObjectHideFlags: 0
  m_PrefabParentObject: {fileID: 2358732, guid: 5e146687c6a67f2418267f6d12ad2e83,
    type: 2}
  m_PrefabInternal: {fileID: 882961440}
  m_GameObject: {fileID: 1098630100}
  m_Enabled: 1
  m_CastShadows: 1
  m_ReceiveShadows: 1
  m_Materials:
  - {fileID: 2100000, guid: 2fcdc848eff87ca439d154813662ba63, type: 2}
  m_SubsetIndices: 
  m_StaticBatchRoot: {fileID: 0}
  m_UseLightProbes: 1
  m_ReflectionProbeUsage: 1
  m_ProbeAnchor: {fileID: 0}
  m_ScaleInLightmap: 1
  m_PreserveUVs: 0
  m_IgnoreNormalsForChartDetection: 0
  m_ImportantGI: 0
  m_MinimumChartSize: 4
  m_AutoUVMaxDistance: 0.5
  m_AutoUVMaxAngle: 89
  m_LightmapParameters: {fileID: 0}
  m_SortingLayerID: 0
  m_SortingOrder: 0
--- !u!33 &1098630102
MeshFilter:
  m_ObjectHideFlags: 0
  m_PrefabParentObject: {fileID: 3357944, guid: 5e146687c6a67f2418267f6d12ad2e83,
    type: 2}
  m_PrefabInternal: {fileID: 882961440}
  m_GameObject: {fileID: 1098630100}
  m_Mesh: {fileID: 4300014, guid: 8ac9969cd5be28241b55dbf277b11b63, type: 3}
--- !u!4 &1098630103
Transform:
  m_ObjectHideFlags: 0
  m_PrefabParentObject: {fileID: 454596, guid: 5e146687c6a67f2418267f6d12ad2e83, type: 2}
  m_PrefabInternal: {fileID: 882961440}
  m_GameObject: {fileID: 1098630100}
  m_LocalRotation: {x: -0.058584224, y: -0.08688137, z: 0.1125206, w: 0.9881087}
  m_LocalPosition: {x: 7.81, y: 0, z: 7.49}
  m_LocalScale: {x: 1.2241422, y: 1.2241423, z: 1.2241423}
  m_Children: []
  m_Father: {fileID: 0}
  m_RootOrder: 10
--- !u!1 &1168690550
GameObject:
  m_ObjectHideFlags: 0
  m_PrefabParentObject: {fileID: 109258, guid: c493d3d03cbce404cb4426d18901b4a2, type: 2}
  m_PrefabInternal: {fileID: 1289966230}
  serializedVersion: 4
  m_Component:
  - 4: {fileID: 1168690553}
  - 33: {fileID: 1168690552}
  - 23: {fileID: 1168690551}
  m_Layer: 0
  m_Name: Nebula_Medium 4
  m_TagString: Untagged
  m_Icon: {fileID: 0}
  m_NavMeshLayer: 0
  m_StaticEditorFlags: 0
  m_IsActive: 1
--- !u!23 &1168690551
MeshRenderer:
  m_ObjectHideFlags: 0
  m_PrefabParentObject: {fileID: 2395338, guid: c493d3d03cbce404cb4426d18901b4a2,
    type: 2}
  m_PrefabInternal: {fileID: 1289966230}
  m_GameObject: {fileID: 1168690550}
  m_Enabled: 1
  m_CastShadows: 1
  m_ReceiveShadows: 1
  m_Materials:
  - {fileID: 2100000, guid: 37a0a7a86d41b3e43b7a4fdb260ab66b, type: 2}
  m_SubsetIndices: 
  m_StaticBatchRoot: {fileID: 0}
  m_UseLightProbes: 1
  m_ReflectionProbeUsage: 1
  m_ProbeAnchor: {fileID: 0}
  m_ScaleInLightmap: 1
  m_PreserveUVs: 0
  m_IgnoreNormalsForChartDetection: 0
  m_ImportantGI: 0
  m_MinimumChartSize: 4
  m_AutoUVMaxDistance: 0.5
  m_AutoUVMaxAngle: 89
  m_LightmapParameters: {fileID: 0}
  m_SortingLayerID: 0
  m_SortingOrder: 0
--- !u!33 &1168690552
MeshFilter:
  m_ObjectHideFlags: 0
  m_PrefabParentObject: {fileID: 3368128, guid: c493d3d03cbce404cb4426d18901b4a2,
    type: 2}
  m_PrefabInternal: {fileID: 1289966230}
  m_GameObject: {fileID: 1168690550}
  m_Mesh: {fileID: 4300002, guid: 0e93fe3bf6b9ebd48857f39dfa5b9def, type: 3}
--- !u!4 &1168690553
Transform:
  m_ObjectHideFlags: 0
  m_PrefabParentObject: {fileID: 435914, guid: c493d3d03cbce404cb4426d18901b4a2, type: 2}
  m_PrefabInternal: {fileID: 1289966230}
  m_GameObject: {fileID: 1168690550}
  m_LocalRotation: {x: 0.77954596, y: -0.17031665, z: 0.26583582, w: 0.5409545}
  m_LocalPosition: {x: 0, y: 0, z: 0}
  m_LocalScale: {x: 0.98, y: 0.98, z: 0.98}
  m_Children: []
  m_Father: {fileID: 0}
  m_RootOrder: 2
--- !u!1 &1189934633
GameObject:
  m_ObjectHideFlags: 0
  m_PrefabParentObject: {fileID: 127356, guid: a0bba650a2f3bc74296aad288c08d469, type: 2}
  m_PrefabInternal: {fileID: 397129625}
  serializedVersion: 4
  m_Component:
  - 4: {fileID: 1189934636}
  - 33: {fileID: 1189934635}
  - 23: {fileID: 1189934634}
  m_Layer: 0
  m_Name: Galaxy_Small
  m_TagString: Untagged
  m_Icon: {fileID: 0}
  m_NavMeshLayer: 0
  m_StaticEditorFlags: 0
  m_IsActive: 1
--- !u!23 &1189934634
MeshRenderer:
  m_ObjectHideFlags: 0
  m_PrefabParentObject: {fileID: 2390014, guid: a0bba650a2f3bc74296aad288c08d469,
    type: 2}
  m_PrefabInternal: {fileID: 397129625}
  m_GameObject: {fileID: 1189934633}
  m_Enabled: 1
  m_CastShadows: 1
  m_ReceiveShadows: 1
  m_Materials:
  - {fileID: 2100000, guid: 0281bf8d7621d6c40a73e84e341e80b3, type: 2}
  m_SubsetIndices: 
  m_StaticBatchRoot: {fileID: 0}
  m_UseLightProbes: 1
  m_ReflectionProbeUsage: 1
  m_ProbeAnchor: {fileID: 0}
  m_ScaleInLightmap: 1
  m_PreserveUVs: 0
  m_IgnoreNormalsForChartDetection: 0
  m_ImportantGI: 0
  m_MinimumChartSize: 4
  m_AutoUVMaxDistance: 0.5
  m_AutoUVMaxAngle: 89
  m_LightmapParameters: {fileID: 0}
  m_SortingLayerID: 0
  m_SortingOrder: 0
--- !u!33 &1189934635
MeshFilter:
  m_ObjectHideFlags: 0
  m_PrefabParentObject: {fileID: 3347018, guid: a0bba650a2f3bc74296aad288c08d469,
    type: 2}
  m_PrefabInternal: {fileID: 397129625}
  m_GameObject: {fileID: 1189934633}
  m_Mesh: {fileID: 4300006, guid: 0e93fe3bf6b9ebd48857f39dfa5b9def, type: 3}
--- !u!4 &1189934636
Transform:
  m_ObjectHideFlags: 0
  m_PrefabParentObject: {fileID: 488912, guid: a0bba650a2f3bc74296aad288c08d469, type: 2}
  m_PrefabInternal: {fileID: 397129625}
  m_GameObject: {fileID: 1189934633}
  m_LocalRotation: {x: 0.8005452, y: 0.23842, z: 0.30983773, w: 0.4541848}
  m_LocalPosition: {x: 30.87, y: 37.95, z: -0.08}
  m_LocalScale: {x: 0.5852405, y: 0.5852405, z: 0.5852405}
  m_Children: []
  m_Father: {fileID: 0}
  m_RootOrder: 5
--- !u!1001 &1266782654
Prefab:
  m_ObjectHideFlags: 0
  serializedVersion: 2
  m_Modification:
    m_TransformParent: {fileID: 0}
    m_Modifications:
    - target: {fileID: 435914, guid: c493d3d03cbce404cb4426d18901b4a2, type: 2}
      propertyPath: m_LocalPosition.x
      value: 0
      objectReference: {fileID: 0}
    - target: {fileID: 435914, guid: c493d3d03cbce404cb4426d18901b4a2, type: 2}
      propertyPath: m_LocalPosition.y
      value: 0
      objectReference: {fileID: 0}
    - target: {fileID: 435914, guid: c493d3d03cbce404cb4426d18901b4a2, type: 2}
      propertyPath: m_LocalPosition.z
      value: 0
      objectReference: {fileID: 0}
    - target: {fileID: 435914, guid: c493d3d03cbce404cb4426d18901b4a2, type: 2}
      propertyPath: m_LocalRotation.x
      value: .788415968
      objectReference: {fileID: 0}
    - target: {fileID: 435914, guid: c493d3d03cbce404cb4426d18901b4a2, type: 2}
      propertyPath: m_LocalRotation.y
      value: .0737028345
      objectReference: {fileID: 0}
    - target: {fileID: 435914, guid: c493d3d03cbce404cb4426d18901b4a2, type: 2}
      propertyPath: m_LocalRotation.z
      value: .0817810446
      objectReference: {fileID: 0}
    - target: {fileID: 435914, guid: c493d3d03cbce404cb4426d18901b4a2, type: 2}
      propertyPath: m_LocalRotation.w
      value: .605210781
      objectReference: {fileID: 0}
    - target: {fileID: 435914, guid: c493d3d03cbce404cb4426d18901b4a2, type: 2}
      propertyPath: m_RootOrder
      value: 0
      objectReference: {fileID: 0}
    - target: {fileID: 109258, guid: c493d3d03cbce404cb4426d18901b4a2, type: 2}
      propertyPath: m_Name
      value: Nebula_Medium 2
      objectReference: {fileID: 0}
    - target: {fileID: 2395338, guid: c493d3d03cbce404cb4426d18901b4a2, type: 2}
      propertyPath: m_Materials.Array.data[0]
      value: 
      objectReference: {fileID: 2100000, guid: ef53862a251c3ad4d95b2b376608ee3f, type: 2}
    m_RemovedComponents: []
  m_ParentPrefab: {fileID: 100100000, guid: c493d3d03cbce404cb4426d18901b4a2, type: 2}
  m_RootGameObject: {fileID: 139216684}
  m_IsPrefabParent: 0
--- !u!1001 &1289966230
Prefab:
  m_ObjectHideFlags: 0
  serializedVersion: 2
  m_Modification:
    m_TransformParent: {fileID: 0}
    m_Modifications:
    - target: {fileID: 435914, guid: c493d3d03cbce404cb4426d18901b4a2, type: 2}
      propertyPath: m_LocalPosition.x
      value: 0
      objectReference: {fileID: 0}
    - target: {fileID: 435914, guid: c493d3d03cbce404cb4426d18901b4a2, type: 2}
      propertyPath: m_LocalPosition.y
      value: 0
      objectReference: {fileID: 0}
    - target: {fileID: 435914, guid: c493d3d03cbce404cb4426d18901b4a2, type: 2}
      propertyPath: m_LocalPosition.z
      value: 0
      objectReference: {fileID: 0}
    - target: {fileID: 435914, guid: c493d3d03cbce404cb4426d18901b4a2, type: 2}
      propertyPath: m_LocalRotation.x
      value: .779545963
      objectReference: {fileID: 0}
    - target: {fileID: 435914, guid: c493d3d03cbce404cb4426d18901b4a2, type: 2}
      propertyPath: m_LocalRotation.y
      value: -.170316651
      objectReference: {fileID: 0}
    - target: {fileID: 435914, guid: c493d3d03cbce404cb4426d18901b4a2, type: 2}
      propertyPath: m_LocalRotation.z
      value: .265835822
      objectReference: {fileID: 0}
    - target: {fileID: 435914, guid: c493d3d03cbce404cb4426d18901b4a2, type: 2}
      propertyPath: m_LocalRotation.w
      value: .540954471
      objectReference: {fileID: 0}
    - target: {fileID: 435914, guid: c493d3d03cbce404cb4426d18901b4a2, type: 2}
      propertyPath: m_RootOrder
      value: 0
      objectReference: {fileID: 0}
    - target: {fileID: 109258, guid: c493d3d03cbce404cb4426d18901b4a2, type: 2}
      propertyPath: m_Name
      value: Nebula_Medium 4
      objectReference: {fileID: 0}
    - target: {fileID: 2395338, guid: c493d3d03cbce404cb4426d18901b4a2, type: 2}
      propertyPath: m_Materials.Array.data[0]
      value: 
      objectReference: {fileID: 2100000, guid: 37a0a7a86d41b3e43b7a4fdb260ab66b, type: 2}
    m_RemovedComponents: []
  m_ParentPrefab: {fileID: 100100000, guid: c493d3d03cbce404cb4426d18901b4a2, type: 2}
  m_RootGameObject: {fileID: 1168690550}
  m_IsPrefabParent: 0
--- !u!1 &1316095808
GameObject:
  m_ObjectHideFlags: 0
  m_PrefabParentObject: {fileID: 109258, guid: c493d3d03cbce404cb4426d18901b4a2, type: 2}
  m_PrefabInternal: {fileID: 1371967417}
  serializedVersion: 4
  m_Component:
  - 4: {fileID: 1316095811}
  - 33: {fileID: 1316095810}
  - 23: {fileID: 1316095809}
  m_Layer: 0
  m_Name: Nebula_Medium
  m_TagString: Untagged
  m_Icon: {fileID: 0}
  m_NavMeshLayer: 0
  m_StaticEditorFlags: 0
  m_IsActive: 1
--- !u!23 &1316095809
MeshRenderer:
  m_ObjectHideFlags: 0
  m_PrefabParentObject: {fileID: 2395338, guid: c493d3d03cbce404cb4426d18901b4a2,
    type: 2}
  m_PrefabInternal: {fileID: 1371967417}
  m_GameObject: {fileID: 1316095808}
  m_Enabled: 1
  m_CastShadows: 1
  m_ReceiveShadows: 1
  m_Materials:
  - {fileID: 2100000, guid: ef53862a251c3ad4d95b2b376608ee3f, type: 2}
  m_SubsetIndices: 
  m_StaticBatchRoot: {fileID: 0}
  m_UseLightProbes: 1
  m_ReflectionProbeUsage: 1
  m_ProbeAnchor: {fileID: 0}
  m_ScaleInLightmap: 1
  m_PreserveUVs: 0
  m_IgnoreNormalsForChartDetection: 0
  m_ImportantGI: 0
  m_MinimumChartSize: 4
  m_AutoUVMaxDistance: 0.5
  m_AutoUVMaxAngle: 89
  m_LightmapParameters: {fileID: 0}
  m_SortingLayerID: 0
  m_SortingOrder: 0
--- !u!33 &1316095810
MeshFilter:
  m_ObjectHideFlags: 0
  m_PrefabParentObject: {fileID: 3368128, guid: c493d3d03cbce404cb4426d18901b4a2,
    type: 2}
  m_PrefabInternal: {fileID: 1371967417}
  m_GameObject: {fileID: 1316095808}
  m_Mesh: {fileID: 4300002, guid: 0e93fe3bf6b9ebd48857f39dfa5b9def, type: 3}
--- !u!4 &1316095811
Transform:
  m_ObjectHideFlags: 0
  m_PrefabParentObject: {fileID: 435914, guid: c493d3d03cbce404cb4426d18901b4a2, type: 2}
  m_PrefabInternal: {fileID: 1371967417}
  m_GameObject: {fileID: 1316095808}
  m_LocalRotation: {x: 0.6160097, y: 0.14613459, z: -0.17958374, w: 0.75294524}
  m_LocalPosition: {x: 0, y: 0, z: 0}
  m_LocalScale: {x: 0.98, y: 0.98, z: 0.98}
  m_Children: []
  m_Father: {fileID: 0}
  m_RootOrder: 9
--- !u!1001 &1371967417
Prefab:
  m_ObjectHideFlags: 0
  serializedVersion: 2
  m_Modification:
    m_TransformParent: {fileID: 0}
    m_Modifications:
    - target: {fileID: 435914, guid: c493d3d03cbce404cb4426d18901b4a2, type: 2}
      propertyPath: m_LocalPosition.x
      value: 0
      objectReference: {fileID: 0}
    - target: {fileID: 435914, guid: c493d3d03cbce404cb4426d18901b4a2, type: 2}
      propertyPath: m_LocalPosition.y
      value: 0
      objectReference: {fileID: 0}
    - target: {fileID: 435914, guid: c493d3d03cbce404cb4426d18901b4a2, type: 2}
      propertyPath: m_LocalPosition.z
      value: 0
      objectReference: {fileID: 0}
    - target: {fileID: 435914, guid: c493d3d03cbce404cb4426d18901b4a2, type: 2}
      propertyPath: m_LocalRotation.x
      value: .616009712
      objectReference: {fileID: 0}
    - target: {fileID: 435914, guid: c493d3d03cbce404cb4426d18901b4a2, type: 2}
      propertyPath: m_LocalRotation.y
      value: .146134585
      objectReference: {fileID: 0}
    - target: {fileID: 435914, guid: c493d3d03cbce404cb4426d18901b4a2, type: 2}
      propertyPath: m_LocalRotation.z
      value: -.179583743
      objectReference: {fileID: 0}
    - target: {fileID: 435914, guid: c493d3d03cbce404cb4426d18901b4a2, type: 2}
      propertyPath: m_LocalRotation.w
      value: .752945244
      objectReference: {fileID: 0}
    - target: {fileID: 435914, guid: c493d3d03cbce404cb4426d18901b4a2, type: 2}
      propertyPath: m_RootOrder
      value: 5
      objectReference: {fileID: 0}
    - target: {fileID: 2395338, guid: c493d3d03cbce404cb4426d18901b4a2, type: 2}
      propertyPath: m_Materials.Array.data[0]
      value: 
      objectReference: {fileID: 2100000, guid: ef53862a251c3ad4d95b2b376608ee3f, type: 2}
    m_RemovedComponents: []
  m_ParentPrefab: {fileID: 100100000, guid: c493d3d03cbce404cb4426d18901b4a2, type: 2}
  m_RootGameObject: {fileID: 1316095808}
  m_IsPrefabParent: 0
--- !u!1001 &1571043981
Prefab:
  m_ObjectHideFlags: 0
  serializedVersion: 2
  m_Modification:
    m_TransformParent: {fileID: 0}
    m_Modifications:
    - target: {fileID: 489550, guid: f2f3120c1bdbe1048b22872d840de803, type: 2}
      propertyPath: m_LocalPosition.x
      value: -19.1000004
      objectReference: {fileID: 0}
    - target: {fileID: 489550, guid: f2f3120c1bdbe1048b22872d840de803, type: 2}
      propertyPath: m_LocalPosition.y
      value: -7
      objectReference: {fileID: 0}
    - target: {fileID: 489550, guid: f2f3120c1bdbe1048b22872d840de803, type: 2}
      propertyPath: m_LocalPosition.z
      value: 27.7999992
      objectReference: {fileID: 0}
    - target: {fileID: 489550, guid: f2f3120c1bdbe1048b22872d840de803, type: 2}
      propertyPath: m_LocalRotation.x
      value: -.0966010094
      objectReference: {fileID: 0}
    - target: {fileID: 489550, guid: f2f3120c1bdbe1048b22872d840de803, type: 2}
      propertyPath: m_LocalRotation.y
      value: -.22766149
      objectReference: {fileID: 0}
    - target: {fileID: 489550, guid: f2f3120c1bdbe1048b22872d840de803, type: 2}
      propertyPath: m_LocalRotation.z
      value: .0420996398
      objectReference: {fileID: 0}
    - target: {fileID: 489550, guid: f2f3120c1bdbe1048b22872d840de803, type: 2}
      propertyPath: m_LocalRotation.w
      value: .96802181
      objectReference: {fileID: 0}
    - target: {fileID: 489550, guid: f2f3120c1bdbe1048b22872d840de803, type: 2}
      propertyPath: m_RootOrder
      value: 1
      objectReference: {fileID: 0}
    - target: {fileID: 489550, guid: f2f3120c1bdbe1048b22872d840de803, type: 2}
      propertyPath: m_LocalScale.x
      value: .628881454
      objectReference: {fileID: 0}
    - target: {fileID: 489550, guid: f2f3120c1bdbe1048b22872d840de803, type: 2}
      propertyPath: m_LocalScale.y
      value: .628881276
      objectReference: {fileID: 0}
    - target: {fileID: 489550, guid: f2f3120c1bdbe1048b22872d840de803, type: 2}
      propertyPath: m_LocalScale.z
      value: .628881276
      objectReference: {fileID: 0}
    m_RemovedComponents: []
  m_ParentPrefab: {fileID: 100100000, guid: f2f3120c1bdbe1048b22872d840de803, type: 2}
  m_RootGameObject: {fileID: 125877302}
  m_IsPrefabParent: 0
--- !u!1 &1596396998
GameObject:
  m_ObjectHideFlags: 0
  m_PrefabParentObject: {fileID: 166890, guid: 410b5de8a6fad3b4491308f2a1c87efa, type: 2}
  m_PrefabInternal: {fileID: 691910644}
  serializedVersion: 4
  m_Component:
  - 4: {fileID: 1596397001}
  - 33: {fileID: 1596397000}
  - 23: {fileID: 1596396999}
  m_Layer: 0
  m_Name: Skybox_A
  m_TagString: Untagged
  m_Icon: {fileID: 0}
  m_NavMeshLayer: 0
  m_StaticEditorFlags: 0
  m_IsActive: 1
--- !u!23 &1596396999
MeshRenderer:
  m_ObjectHideFlags: 0
  m_PrefabParentObject: {fileID: 2315806, guid: 410b5de8a6fad3b4491308f2a1c87efa,
    type: 2}
  m_PrefabInternal: {fileID: 691910644}
  m_GameObject: {fileID: 1596396998}
  m_Enabled: 1
  m_CastShadows: 1
  m_ReceiveShadows: 1
  m_Materials:
  - {fileID: 2100000, guid: b6cca299120e7b64286a9608a92754cc, type: 2}
  m_SubsetIndices: 
  m_StaticBatchRoot: {fileID: 0}
  m_UseLightProbes: 1
  m_ReflectionProbeUsage: 1
  m_ProbeAnchor: {fileID: 0}
  m_ScaleInLightmap: 1
  m_PreserveUVs: 0
  m_IgnoreNormalsForChartDetection: 0
  m_ImportantGI: 0
  m_MinimumChartSize: 4
  m_AutoUVMaxDistance: 0.5
  m_AutoUVMaxAngle: 89
  m_LightmapParameters: {fileID: 0}
  m_SortingLayerID: 0
  m_SortingOrder: 0
--- !u!33 &1596397000
MeshFilter:
  m_ObjectHideFlags: 0
  m_PrefabParentObject: {fileID: 3369430, guid: 410b5de8a6fad3b4491308f2a1c87efa,
    type: 2}
  m_PrefabInternal: {fileID: 691910644}
  m_GameObject: {fileID: 1596396998}
  m_Mesh: {fileID: 4300000, guid: 5ebb9206daec4704f8f47668a037714d, type: 3}
--- !u!4 &1596397001
Transform:
  m_ObjectHideFlags: 0
  m_PrefabParentObject: {fileID: 453146, guid: 410b5de8a6fad3b4491308f2a1c87efa, type: 2}
  m_PrefabInternal: {fileID: 691910644}
  m_GameObject: {fileID: 1596396998}
  m_LocalRotation: {x: 0, y: 0, z: 0, w: 1}
  m_LocalPosition: {x: 0, y: 0, z: 0}
  m_LocalScale: {x: 1, y: 1, z: 1}
  m_Children: []
  m_Father: {fileID: 0}
  m_RootOrder: 12
--- !u!1 &1683236436
GameObject:
  m_ObjectHideFlags: 0
  m_PrefabParentObject: {fileID: 112746, guid: 57a95317300c4f3429baab9f22400d96, type: 2}
  m_PrefabInternal: {fileID: 1861668620}
  serializedVersion: 4
  m_Component:
  - 4: {fileID: 1683236439}
  - 33: {fileID: 1683236438}
  - 23: {fileID: 1683236437}
  m_Layer: 0
  m_Name: Planet_Ring_B2
  m_TagString: Untagged
  m_Icon: {fileID: 0}
  m_NavMeshLayer: 0
  m_StaticEditorFlags: 0
  m_IsActive: 1
--- !u!23 &1683236437
MeshRenderer:
  m_ObjectHideFlags: 0
  m_PrefabParentObject: {fileID: 2332036, guid: 57a95317300c4f3429baab9f22400d96,
    type: 2}
  m_PrefabInternal: {fileID: 1861668620}
  m_GameObject: {fileID: 1683236436}
  m_Enabled: 1
  m_CastShadows: 1
  m_ReceiveShadows: 1
  m_Materials:
  - {fileID: 2100000, guid: 4f83bc1d85beeac40b72ba9923b692ed, type: 2}
  m_SubsetIndices: 
  m_StaticBatchRoot: {fileID: 0}
  m_UseLightProbes: 1
  m_ReflectionProbeUsage: 1
  m_ProbeAnchor: {fileID: 0}
  m_ScaleInLightmap: 1
  m_PreserveUVs: 0
  m_IgnoreNormalsForChartDetection: 0
  m_ImportantGI: 0
  m_MinimumChartSize: 4
  m_AutoUVMaxDistance: 0.5
  m_AutoUVMaxAngle: 89
  m_LightmapParameters: {fileID: 0}
  m_SortingLayerID: 0
  m_SortingOrder: 0
--- !u!33 &1683236438
MeshFilter:
  m_ObjectHideFlags: 0
  m_PrefabParentObject: {fileID: 3336588, guid: 57a95317300c4f3429baab9f22400d96,
    type: 2}
  m_PrefabInternal: {fileID: 1861668620}
  m_GameObject: {fileID: 1683236436}
  m_Mesh: {fileID: 4300006, guid: 8ac9969cd5be28241b55dbf277b11b63, type: 3}
--- !u!4 &1683236439
Transform:
  m_ObjectHideFlags: 0
  m_PrefabParentObject: {fileID: 429518, guid: 57a95317300c4f3429baab9f22400d96, type: 2}
  m_PrefabInternal: {fileID: 1861668620}
  m_GameObject: {fileID: 1683236436}
  m_LocalRotation: {x: -0.09660101, y: -0.22766149, z: 0.04209964, w: 0.9680218}
  m_LocalPosition: {x: -19.29, y: -6.54, z: 27.85}
  m_LocalScale: {x: 0.5849893, y: 0.58498925, z: 0.58498925}
  m_Children: []
  m_Father: {fileID: 0}
  m_RootOrder: 1
--- !u!1001 &1859424811
Prefab:
  m_ObjectHideFlags: 0
  serializedVersion: 2
  m_Modification:
    m_TransformParent: {fileID: 0}
    m_Modifications:
    - target: {fileID: 435914, guid: c493d3d03cbce404cb4426d18901b4a2, type: 2}
      propertyPath: m_LocalPosition.x
      value: 0
      objectReference: {fileID: 0}
    - target: {fileID: 435914, guid: c493d3d03cbce404cb4426d18901b4a2, type: 2}
      propertyPath: m_LocalPosition.y
      value: 0
      objectReference: {fileID: 0}
    - target: {fileID: 435914, guid: c493d3d03cbce404cb4426d18901b4a2, type: 2}
      propertyPath: m_LocalPosition.z
      value: 0
      objectReference: {fileID: 0}
    - target: {fileID: 435914, guid: c493d3d03cbce404cb4426d18901b4a2, type: 2}
      propertyPath: m_LocalRotation.x
      value: .828550398
      objectReference: {fileID: 0}
    - target: {fileID: 435914, guid: c493d3d03cbce404cb4426d18901b4a2, type: 2}
      propertyPath: m_LocalRotation.y
      value: .250630587
      objectReference: {fileID: 0}
    - target: {fileID: 435914, guid: c493d3d03cbce404cb4426d18901b4a2, type: 2}
      propertyPath: m_LocalRotation.z
      value: -.118292049
      objectReference: {fileID: 0}
    - target: {fileID: 435914, guid: c493d3d03cbce404cb4426d18901b4a2, type: 2}
      propertyPath: m_LocalRotation.w
      value: .486513644
      objectReference: {fileID: 0}
    - target: {fileID: 435914, guid: c493d3d03cbce404cb4426d18901b4a2, type: 2}
      propertyPath: m_RootOrder
      value: 1
      objectReference: {fileID: 0}
    - target: {fileID: 109258, guid: c493d3d03cbce404cb4426d18901b4a2, type: 2}
      propertyPath: m_Name
      value: Nebula_Medium 1
      objectReference: {fileID: 0}
    - target: {fileID: 2395338, guid: c493d3d03cbce404cb4426d18901b4a2, type: 2}
      propertyPath: m_Materials.Array.data[0]
      value: 
      objectReference: {fileID: 2100000, guid: ef53862a251c3ad4d95b2b376608ee3f, type: 2}
    m_RemovedComponents: []
  m_ParentPrefab: {fileID: 100100000, guid: c493d3d03cbce404cb4426d18901b4a2, type: 2}
  m_RootGameObject: {fileID: 419080817}
  m_IsPrefabParent: 0
--- !u!1001 &1861668620
Prefab:
  m_ObjectHideFlags: 0
  serializedVersion: 2
  m_Modification:
    m_TransformParent: {fileID: 0}
    m_Modifications:
    - target: {fileID: 429518, guid: 57a95317300c4f3429baab9f22400d96, type: 2}
      propertyPath: m_LocalPosition.x
      value: -19.2900009
      objectReference: {fileID: 0}
    - target: {fileID: 429518, guid: 57a95317300c4f3429baab9f22400d96, type: 2}
      propertyPath: m_LocalPosition.y
      value: -6.53999996
      objectReference: {fileID: 0}
    - target: {fileID: 429518, guid: 57a95317300c4f3429baab9f22400d96, type: 2}
      propertyPath: m_LocalPosition.z
      value: 27.8500004
      objectReference: {fileID: 0}
    - target: {fileID: 429518, guid: 57a95317300c4f3429baab9f22400d96, type: 2}
      propertyPath: m_LocalRotation.x
      value: -.0966010094
      objectReference: {fileID: 0}
    - target: {fileID: 429518, guid: 57a95317300c4f3429baab9f22400d96, type: 2}
      propertyPath: m_LocalRotation.y
      value: -.22766149
      objectReference: {fileID: 0}
    - target: {fileID: 429518, guid: 57a95317300c4f3429baab9f22400d96, type: 2}
      propertyPath: m_LocalRotation.z
      value: .0420996398
      objectReference: {fileID: 0}
    - target: {fileID: 429518, guid: 57a95317300c4f3429baab9f22400d96, type: 2}
      propertyPath: m_LocalRotation.w
      value: .96802181
      objectReference: {fileID: 0}
    - target: {fileID: 429518, guid: 57a95317300c4f3429baab9f22400d96, type: 2}
      propertyPath: m_RootOrder
      value: 0
      objectReference: {fileID: 0}
    - target: {fileID: 429518, guid: 57a95317300c4f3429baab9f22400d96, type: 2}
      propertyPath: m_LocalScale.x
      value: .584989309
      objectReference: {fileID: 0}
    - target: {fileID: 429518, guid: 57a95317300c4f3429baab9f22400d96, type: 2}
      propertyPath: m_LocalScale.y
      value: .58498925
      objectReference: {fileID: 0}
    - target: {fileID: 429518, guid: 57a95317300c4f3429baab9f22400d96, type: 2}
      propertyPath: m_LocalScale.z
      value: .58498925
      objectReference: {fileID: 0}
    m_RemovedComponents: []
  m_ParentPrefab: {fileID: 100100000, guid: 57a95317300c4f3429baab9f22400d96, type: 2}
  m_RootGameObject: {fileID: 1683236436}
  m_IsPrefabParent: 0
--- !u!1 &1865949505
GameObject:
  m_ObjectHideFlags: 0
  m_PrefabParentObject: {fileID: 106350, guid: a6acb94124ef3b348ab02b76e97f1189, type: 2}
  m_PrefabInternal: {fileID: 619032347}
  serializedVersion: 4
  m_Component:
  - 4: {fileID: 1865949508}
  - 33: {fileID: 1865949507}
  - 23: {fileID: 1865949506}
  m_Layer: 0
  m_Name: Galaxy_Medium
  m_TagString: Untagged
  m_Icon: {fileID: 0}
  m_NavMeshLayer: 0
  m_StaticEditorFlags: 0
  m_IsActive: 1
--- !u!23 &1865949506
MeshRenderer:
  m_ObjectHideFlags: 0
  m_PrefabParentObject: {fileID: 2361502, guid: a6acb94124ef3b348ab02b76e97f1189,
    type: 2}
  m_PrefabInternal: {fileID: 619032347}
  m_GameObject: {fileID: 1865949505}
  m_Enabled: 1
  m_CastShadows: 1
  m_ReceiveShadows: 1
  m_Materials:
  - {fileID: 2100000, guid: d6938b912e9f2864fae95d7c177eac12, type: 2}
  m_SubsetIndices: 
  m_StaticBatchRoot: {fileID: 0}
  m_UseLightProbes: 1
  m_ReflectionProbeUsage: 1
  m_ProbeAnchor: {fileID: 0}
  m_ScaleInLightmap: 1
  m_PreserveUVs: 0
  m_IgnoreNormalsForChartDetection: 0
  m_ImportantGI: 0
  m_MinimumChartSize: 4
  m_AutoUVMaxDistance: 0.5
  m_AutoUVMaxAngle: 89
  m_LightmapParameters: {fileID: 0}
  m_SortingLayerID: 0
  m_SortingOrder: 0
--- !u!33 &1865949507
MeshFilter:
  m_ObjectHideFlags: 0
  m_PrefabParentObject: {fileID: 3308462, guid: a6acb94124ef3b348ab02b76e97f1189,
    type: 2}
  m_PrefabInternal: {fileID: 619032347}
  m_GameObject: {fileID: 1865949505}
  m_Mesh: {fileID: 4300008, guid: 0e93fe3bf6b9ebd48857f39dfa5b9def, type: 3}
--- !u!4 &1865949508
Transform:
  m_ObjectHideFlags: 0
  m_PrefabParentObject: {fileID: 476934, guid: a6acb94124ef3b348ab02b76e97f1189, type: 2}
  m_PrefabInternal: {fileID: 619032347}
  m_GameObject: {fileID: 1865949505}
  m_LocalRotation: {x: 0.5509613, y: -0.109600745, z: 0.066529855, w: 0.824623}
  m_LocalPosition: {x: 0, y: 0, z: 0}
  m_LocalScale: {x: 1, y: 1, z: 1}
  m_Children: []
  m_Father: {fileID: 0}
  m_RootOrder: 11
--- !u!1001 &1917071091
Prefab:
  m_ObjectHideFlags: 0
  serializedVersion: 2
  m_Modification:
    m_TransformParent: {fileID: 0}
    m_Modifications:
    - target: {fileID: 435914, guid: c493d3d03cbce404cb4426d18901b4a2, type: 2}
      propertyPath: m_LocalPosition.x
      value: 0
      objectReference: {fileID: 0}
    - target: {fileID: 435914, guid: c493d3d03cbce404cb4426d18901b4a2, type: 2}
      propertyPath: m_LocalPosition.y
      value: 0
      objectReference: {fileID: 0}
    - target: {fileID: 435914, guid: c493d3d03cbce404cb4426d18901b4a2, type: 2}
      propertyPath: m_LocalPosition.z
      value: 0
      objectReference: {fileID: 0}
    - target: {fileID: 435914, guid: c493d3d03cbce404cb4426d18901b4a2, type: 2}
      propertyPath: m_LocalRotation.x
      value: .612090886
      objectReference: {fileID: 0}
    - target: {fileID: 435914, guid: c493d3d03cbce404cb4426d18901b4a2, type: 2}
      propertyPath: m_LocalRotation.y
      value: -.189881787
      objectReference: {fileID: 0}
    - target: {fileID: 435914, guid: c493d3d03cbce404cb4426d18901b4a2, type: 2}
      propertyPath: m_LocalRotation.z
      value: .25319168
      objectReference: {fileID: 0}
    - target: {fileID: 435914, guid: c493d3d03cbce404cb4426d18901b4a2, type: 2}
      propertyPath: m_LocalRotation.w
      value: .724695563
      objectReference: {fileID: 0}
    - target: {fileID: 435914, guid: c493d3d03cbce404cb4426d18901b4a2, type: 2}
      propertyPath: m_RootOrder
      value: 0
      objectReference: {fileID: 0}
    - target: {fileID: 109258, guid: c493d3d03cbce404cb4426d18901b4a2, type: 2}
      propertyPath: m_Name
      value: Nebula_Medium 3
      objectReference: {fileID: 0}
    - target: {fileID: 2395338, guid: c493d3d03cbce404cb4426d18901b4a2, type: 2}
      propertyPath: m_Materials.Array.data[0]
      value: 
      objectReference: {fileID: 2100000, guid: 37a0a7a86d41b3e43b7a4fdb260ab66b, type: 2}
    m_RemovedComponents: []
  m_ParentPrefab: {fileID: 100100000, guid: c493d3d03cbce404cb4426d18901b4a2, type: 2}
  m_RootGameObject: {fileID: 399666366}
  m_IsPrefabParent: 0
