mazeTraining
Round #1
Start: 00:13
End: 01:37
Round #2
Start: 01:45
End: 03:05
Round #3
Start: 03:08
End: 04:30
Round #4
Start: 04:33
End: 05:54
mazeColor
Round #1
Start: 00:01
End: 01:25
Round #2
Start: 01:30
End: 02:49
Round #3
Start: 02:51
End: 04:12
Round #4
Start: 04:13
End: 05:35
