mazeTraining
Round #1
Start: 00:07
End: 01:31
Round #2
Start: 01:36
End: 03:04
Round #3
Start: 03:07
End: 04:28
Round #4
Start: 04:30
End: 05:49
mazeShape
Round #1
Start: 00:01
End: 03:43
Round #2
Start: 03:48
End: 05:17
Round #3
Start: 05:19
End: 06:38
Round #4
Start: 06:40
End: 08:01
